[
  {
    "component": "alerts-section",
    "states": [
      {
        "status": "Success",
        "how_to_use": "Success alerts should be used when an action was performed successfully.",
        "code": [
          "<div class='alert alert-section alert-success' role='alert'>",
          "  <i class='eos-icons-outlined eos-18 alert-icon' aria-hidden='true'>check_circle</i>",
          "  <div class='alert-body'>",
          "    <div class='alert-title'>Your system has been updated</div>",
          "    The changes may take take a few minutes to impact your services.",
          "  </div>",
          "  <button class='close' data-dismiss='alert' aria-label='Close alert'><i class='eos-icons-outlined eos-18' aria-hidden='true'>close</i></button>",
          "</div>"
        ]
      },
      {
        "status": "Info",
        "how_to_use": "Info alerts should be used when there are tips or information that a user can benefit from.",
        "code": [
          "<div class='alert alert-section alert-info' role='alert'>",
          "  <i class='eos-icons-outlined eos-18 alert-icon' aria-hidden='true'>info</i>",
          "  <div class='alert-body'>",
          "    <div class='alert-title'>New updates available</div>",
          "    A new system update is available for some of your systems. Go to the <a>documentation page</a> to learn more about this new update and how to install it.",
          "  </div>",
          "  <button class='close' data-dismiss='alert' aria-label='Close alert'><i class='eos-icons-outlined eos-18' aria-hidden='true'>close</i></button>",
          "</div>"
        ]
      },
      {
        "status": "Warning",
        "how_to_use": "Warning alerts should be used for messages that likely require attention.",
        "code": [
          "<div class='alert alert-section alert-warning' role='alert'>",
          "  <i class='eos-icons-outlined eos-18 alert-icon' aria-hidden='true'>warning</i>",
          "  <div class='alert-body'>",
          "    <div class='alert-title'>Subscriptions about to expire</div>",
          "    7 of your systems’ subscriptions are about to expire in the next 30 days. To avoid any service interruption go to the <a>subscriptions page</a> and renew the subscriptions.",
          "  </div>",
          "  <button class='close' data-dismiss='alert' aria-label='Close alert'><i class='eos-icons-outlined eos-18' aria-hidden='true'>close</i></button>",
          "</div>"
        ]
      },
      {
        "status": "Danger",
        "how_to_use": "Danger alerts should be used when the system has failed to perform an action, or when the user has made an error. * Never include a close icon or link to dismiss the action. In cases when alert should be dismissible use warning alert instead.",
        "code": [
          "<div class='alert alert-section alert-danger' role='alert'>",
          "  <i class='eos-icons-outlined eos-18 alert-icon' aria-hidden='true'>error</i>",
          "  <div class='alert-body'>",
          "    <div class='alert-title'>Expired subscriptions</div>",
          "    2 of your systems’ subscriptions have expired and you can no longer access the systems until you renew your subscriptions. To stop seeing this message <a>renew your subscriptions</a> or delete the systems from your organization.",
          "  </div>",
          "</div>"
        ]
      }
    ]
  }
]
