[
  {
    "component": "theme",
    "states": [
      {
        "status": "Theme toggle button",
        "how_to_use": "Use a floating theme switcher on the right side of the screen (see the implementation on this page as an example) to enable a quick theme switcher. It is assumed that the changes affected are to be stored temporarily on local storage or cookies, as opposed to permanent storage on the database.",
        "code": [
          "<button class='btn btn-icon btn-secondary' aria-label='Switch theme' data-toggle='tooltip' title='Switch theme'>",
          "  <i class='eos-icons-outlined eos-18' aria-hidden='true'>dark_mode</i>",
          "</button>"
        ]
      },
      {
        "status": "Theme component ",
        "how_to_use": "Implement the theme switch module in the user settings or preference page within your application to enable users to set a default theme. It is expected that any changes saved from this module are to be stored long-term (on the database) as opposed to local storage or cookies.",
        "code": [
          "  <div class='margin-bottom-s'><strong>Theme:</strong></div>",
          "   <p>Auto uses preference theme as default and turns on dark from 10 pm to 7 am.</p>",
          "   <ul class='no-list-style theme-list'>",
          "     <li><img src='/images/theme/light-theme.svg' alt='Light theme image'>",
          "       <div class='form-check margin-top-s'>",
          "         <input class='form-check-input eos-radio-btn' type='radio' name='color' id='light-theme' value='option1' checked>",
          "         <label class='form-check-label' for='light-theme'>Light</label>",
          "       </div>",
          "     </li>",
          "     <li><img src='/images/theme/dark-theme.svg' alt='Dark theme image'>",
          "       <div class='form-check margin-top-s'>",
          "         <input class='form-check-input eos-radio-btn' type='radio' name='color' id='dark-theme' value='option1'>",
          "         <label class='form-check-label' for='dark-theme'>Dark</label>",
          "       </div>",
          "     </li>",
          "     <li><img src='/images/theme/auto-theme.svg' alt='Auto theme image'>",
          "       <div class='form-check margin-top-s'>",
          "         <input class='form-check-input eos-radio-btn' type='radio' name='color' id='auto-theme' value='option1'>",
          "         <label class='form-check-label' for='auto-theme'>Auto</label>",
          "       </div>",
          "     </li>",
          "   </ul>"
        ]
      }
    ]
  }
]
