<svg xmlns="http://www.w3.org/2000/svg" width="170.284" height="214.226" viewBox="0 0 170.284 214.226">
  <g id="_2_icon_colors" data-name=" 2 icon colors" transform="translate(-1020.716 -1300.893)">
    <g id="_2_icon_colors-2" data-name=" 2 icon colors-2" style="isolation: isolate">
      <path id="Path_168" data-name="Path 168" d="M8.829-2.07a.792.792,0,0,1,.571.2.707.707,0,0,1,.211.535V0H.684V-.738a1.324,1.324,0,0,1,.095-.472,1.211,1.211,0,0,1,.3-.446l3.951-3.96q.495-.5.887-.963a6.217,6.217,0,0,0,.652-.909,4.276,4.276,0,0,0,.4-.913,3.37,3.37,0,0,0,.14-.977,2.312,2.312,0,0,0-.135-.823,1.642,1.642,0,0,0-.382-.6A1.582,1.582,0,0,0,6-11.164a2.343,2.343,0,0,0-.779-.122,2.306,2.306,0,0,0-.734.112,2,2,0,0,0-.6.315,2,2,0,0,0-.441.472,2.054,2.054,0,0,0-.27.594.984.984,0,0,1-.4.549,1.109,1.109,0,0,1-.7.063L.909-9.387a4.826,4.826,0,0,1,.522-1.642A3.938,3.938,0,0,1,2.4-12.208,4.007,4.007,0,0,1,3.73-12.92a5.312,5.312,0,0,1,1.615-.238,4.888,4.888,0,0,1,1.647.266,3.7,3.7,0,0,1,1.278.752,3.4,3.4,0,0,1,.828,1.17A3.78,3.78,0,0,1,9.4-9.45a4.053,4.053,0,0,1-.212,1.332,5.538,5.538,0,0,1-.567,1.17,7.878,7.878,0,0,1-.833,1.08q-.477.522-1,1.062l-2.934,3A6.663,6.663,0,0,1,4.694-2a5.008,5.008,0,0,1,.8-.067Zm9.387-7.164V0H15.984V-9.234Zm.306-2.691a1.267,1.267,0,0,1-.117.54,1.484,1.484,0,0,1-.311.441,1.484,1.484,0,0,1-.455.3,1.4,1.4,0,0,1-.558.113,1.341,1.341,0,0,1-.545-.113,1.442,1.442,0,0,1-.445-.3,1.458,1.458,0,0,1-.3-.441,1.309,1.309,0,0,1-.112-.54,1.4,1.4,0,0,1,.112-.558,1.428,1.428,0,0,1,.3-.45,1.442,1.442,0,0,1,.445-.3,1.341,1.341,0,0,1,.545-.113,1.4,1.4,0,0,1,.558.113,1.484,1.484,0,0,1,.455.3,1.452,1.452,0,0,1,.311.45A1.348,1.348,0,0,1,18.522-11.925ZM27.1-7.281a1.108,1.108,0,0,1-.194.2.447.447,0,0,1-.274.072.611.611,0,0,1-.333-.1q-.162-.1-.387-.234a2.893,2.893,0,0,0-.535-.234,2.461,2.461,0,0,0-.77-.1,2.347,2.347,0,0,0-1.026.211,1.945,1.945,0,0,0-.733.608,2.737,2.737,0,0,0-.437.959,5.147,5.147,0,0,0-.144,1.273,4.993,4.993,0,0,0,.158,1.314,2.809,2.809,0,0,0,.455.967,1.956,1.956,0,0,0,.72.594,2.182,2.182,0,0,0,.954.2,2.365,2.365,0,0,0,.859-.131,2.712,2.712,0,0,0,.554-.288q.225-.158.391-.288a.59.59,0,0,1,.374-.13.451.451,0,0,1,.405.207l.639.81a4.019,4.019,0,0,1-.8.725,4.33,4.33,0,0,1-.9.468,4.554,4.554,0,0,1-.954.248,6.716,6.716,0,0,1-.976.072,4.1,4.1,0,0,1-1.611-.319,3.805,3.805,0,0,1-1.323-.931,4.448,4.448,0,0,1-.9-1.5,5.79,5.79,0,0,1-.328-2.02,5.873,5.873,0,0,1,.292-1.886,4.271,4.271,0,0,1,.859-1.5,3.941,3.941,0,0,1,1.4-.994,4.837,4.837,0,0,1,1.926-.36,4.581,4.581,0,0,1,1.813.333,4.431,4.431,0,0,1,1.4.954Zm5.985-2.1a5.035,5.035,0,0,1,1.868.333,4.091,4.091,0,0,1,1.44.945,4.151,4.151,0,0,1,.923,1.494,5.683,5.683,0,0,1,.324,1.971,5.711,5.711,0,0,1-.324,1.98,4.242,4.242,0,0,1-.923,1.5,4.032,4.032,0,0,1-1.44.954,5.035,5.035,0,0,1-1.868.333A5.1,5.1,0,0,1,31.2-.2a4.024,4.024,0,0,1-1.444-.954,4.294,4.294,0,0,1-.927-1.5,5.64,5.64,0,0,1-.328-1.98,5.613,5.613,0,0,1,.328-1.971A4.2,4.2,0,0,1,29.758-8.1,4.083,4.083,0,0,1,31.2-9.045,5.1,5.1,0,0,1,33.084-9.378Zm0,7.8a1.955,1.955,0,0,0,1.706-.774,3.881,3.881,0,0,0,.553-2.268,3.925,3.925,0,0,0-.553-2.277,1.947,1.947,0,0,0-1.706-.783,1.985,1.985,0,0,0-1.733.787,3.88,3.88,0,0,0-.562,2.273,3.836,3.836,0,0,0,.563,2.264A1.994,1.994,0,0,0,33.084-1.575ZM41.418-8.1a6.014,6.014,0,0,1,.59-.518,3.725,3.725,0,0,1,.657-.405,3.682,3.682,0,0,1,.743-.261,3.72,3.72,0,0,1,.864-.095,3.31,3.31,0,0,1,1.341.257,2.65,2.65,0,0,1,.977.72,3.165,3.165,0,0,1,.594,1.107,4.7,4.7,0,0,1,.2,1.418V0H45.162V-5.877a1.988,1.988,0,0,0-.387-1.31A1.449,1.449,0,0,0,43.6-7.65a2.315,2.315,0,0,0-1.08.261,3.87,3.87,0,0,0-.954.711V0H39.339V-9.234H40.7a.546.546,0,0,1,.567.4Zm19.062.819a1.108,1.108,0,0,1-.194.2.447.447,0,0,1-.275.072.611.611,0,0,1-.333-.1q-.162-.1-.387-.234a2.893,2.893,0,0,0-.535-.234,2.461,2.461,0,0,0-.77-.1,2.347,2.347,0,0,0-1.026.211,1.945,1.945,0,0,0-.734.608,2.737,2.737,0,0,0-.437.959,5.147,5.147,0,0,0-.144,1.273A4.993,4.993,0,0,0,55.8-3.321a2.809,2.809,0,0,0,.455.967,1.956,1.956,0,0,0,.72.594,2.182,2.182,0,0,0,.954.2,2.365,2.365,0,0,0,.86-.131,2.712,2.712,0,0,0,.553-.288q.225-.158.392-.288a.59.59,0,0,1,.374-.13.451.451,0,0,1,.4.207l.639.81a4.019,4.019,0,0,1-.8.725,4.33,4.33,0,0,1-.9.468A4.554,4.554,0,0,1,58.5.063a6.716,6.716,0,0,1-.976.072,4.1,4.1,0,0,1-1.611-.319,3.805,3.805,0,0,1-1.323-.931,4.448,4.448,0,0,1-.9-1.5,5.79,5.79,0,0,1-.328-2.02,5.873,5.873,0,0,1,.292-1.886,4.271,4.271,0,0,1,.86-1.5,3.941,3.941,0,0,1,1.4-.994,4.837,4.837,0,0,1,1.926-.36,4.581,4.581,0,0,1,1.813.333,4.431,4.431,0,0,1,1.4.954Zm5.985-2.1a5.035,5.035,0,0,1,1.868.333,4.091,4.091,0,0,1,1.44.945,4.151,4.151,0,0,1,.923,1.494,5.683,5.683,0,0,1,.324,1.971,5.711,5.711,0,0,1-.324,1.98,4.241,4.241,0,0,1-.923,1.5,4.032,4.032,0,0,1-1.44.954,5.035,5.035,0,0,1-1.868.333A5.1,5.1,0,0,1,64.584-.2a4.024,4.024,0,0,1-1.444-.954,4.294,4.294,0,0,1-.927-1.5,5.64,5.64,0,0,1-.328-1.98,5.613,5.613,0,0,1,.328-1.971A4.2,4.2,0,0,1,63.139-8.1a4.083,4.083,0,0,1,1.444-.945A5.1,5.1,0,0,1,66.465-9.378Zm0,7.8a1.955,1.955,0,0,0,1.706-.774,3.881,3.881,0,0,0,.553-2.268,3.925,3.925,0,0,0-.553-2.277,1.947,1.947,0,0,0-1.706-.783,1.985,1.985,0,0,0-1.732.787,3.88,3.88,0,0,0-.562,2.273,3.836,3.836,0,0,0,.563,2.264A1.994,1.994,0,0,0,66.465-1.575Zm8.505-11.8V0H72.747V-13.374Zm6.309,4a5.035,5.035,0,0,1,1.868.333,4.091,4.091,0,0,1,1.44.945,4.151,4.151,0,0,1,.923,1.494,5.683,5.683,0,0,1,.324,1.971,5.711,5.711,0,0,1-.324,1.98,4.242,4.242,0,0,1-.923,1.5,4.032,4.032,0,0,1-1.44.954,5.035,5.035,0,0,1-1.868.333A5.1,5.1,0,0,1,79.4-.2a4.024,4.024,0,0,1-1.445-.954,4.294,4.294,0,0,1-.927-1.5,5.64,5.64,0,0,1-.329-1.98,5.612,5.612,0,0,1,.329-1.971A4.2,4.2,0,0,1,77.953-8.1,4.083,4.083,0,0,1,79.4-9.045,5.1,5.1,0,0,1,81.279-9.378Zm0,7.8a1.955,1.955,0,0,0,1.706-.774,3.881,3.881,0,0,0,.553-2.268,3.925,3.925,0,0,0-.553-2.277,1.947,1.947,0,0,0-1.706-.783,1.985,1.985,0,0,0-1.732.787,3.88,3.88,0,0,0-.562,2.273,3.836,3.836,0,0,0,.563,2.264A1.994,1.994,0,0,0,81.279-1.575Zm8.352-6.057a3.982,3.982,0,0,1,1.026-1.3,2.187,2.187,0,0,1,1.4-.472,1.717,1.717,0,0,1,1.026.279l-.144,1.665a.43.43,0,0,1-.13.229.36.36,0,0,1-.229.068,2.623,2.623,0,0,1-.4-.045,3.1,3.1,0,0,0-.518-.045,1.863,1.863,0,0,0-.657.108,1.653,1.653,0,0,0-.518.311,2.116,2.116,0,0,0-.4.491,4.786,4.786,0,0,0-.328.657V0H87.534V-9.234h1.305a.718.718,0,0,1,.477.122.714.714,0,0,1,.18.437Zm10.224.2a.593.593,0,0,1-.189.2.49.49,0,0,1-.252.059.794.794,0,0,1-.346-.09q-.185-.09-.428-.2a3.915,3.915,0,0,0-.553-.2,2.651,2.651,0,0,0-.733-.09,1.689,1.689,0,0,0-1.031.279.869.869,0,0,0-.373.729.7.7,0,0,0,.193.5,1.74,1.74,0,0,0,.513.356,5.02,5.02,0,0,0,.725.274q.4.121.823.265t.824.329a2.887,2.887,0,0,1,.725.468,2.174,2.174,0,0,1,.513.68,2.155,2.155,0,0,1,.193.954,3.115,3.115,0,0,1-.239,1.228,2.654,2.654,0,0,1-.706.972,3.332,3.332,0,0,1-1.157.639,5.021,5.021,0,0,1-1.589.23,5.028,5.028,0,0,1-.931-.086,5.5,5.5,0,0,1-.873-.238,4.831,4.831,0,0,1-.774-.36,3.757,3.757,0,0,1-.625-.45l.513-.846a.726.726,0,0,1,.234-.234.656.656,0,0,1,.342-.081.719.719,0,0,1,.392.117q.185.117.427.252a3.821,3.821,0,0,0,.572.252,2.515,2.515,0,0,0,.832.117,2.16,2.16,0,0,0,.68-.094,1.438,1.438,0,0,0,.468-.247.929.929,0,0,0,.27-.356,1.066,1.066,0,0,0,.085-.418.747.747,0,0,0-.193-.531,1.694,1.694,0,0,0-.513-.36,4.954,4.954,0,0,0-.729-.274q-.41-.122-.837-.266A7.743,7.743,0,0,1,95.27-4.3a2.853,2.853,0,0,1-.729-.49,2.22,2.22,0,0,1-.513-.729,2.544,2.544,0,0,1-.194-1.044,2.66,2.66,0,0,1,.225-1.08,2.533,2.533,0,0,1,.662-.9,3.285,3.285,0,0,1,1.089-.612,4.536,4.536,0,0,1,1.507-.229,4.615,4.615,0,0,1,1.737.315,3.923,3.923,0,0,1,1.305.828Z" transform="translate(1033.259 1514.975)" fill="#141823"/>
    </g>
    <g id="Group_226" data-name="Group 226" transform="translate(382 -57.448)">
      <rect id="Rectangle_346" data-name="Rectangle 346" width="121" height="121" transform="translate(639 1401.448)" fill="#2453ff"/>
      <path id="Path_167" data-name="Path 167" d="M43.031-18H16.875L11.953,0h36Zm4.922-6.047L54,0a6.085,6.085,0,0,1-1.9,4.008,6.859,6.859,0,0,1-4.148,2.039h-36A6.757,6.757,0,0,1,7.945,4.008,6.085,6.085,0,0,1,6.047,0l5.906-24.047Zm12.094-9V-27H0v-6.047ZM26.016-38.109a2.778,2.778,0,0,0-2.039-.844,3.017,3.017,0,0,0-2.109.844A2.751,2.751,0,0,0,20.953-36H15.047a15.261,15.261,0,0,1,2.531-5.344A15,15,0,0,1,21.8-45.562a19.488,19.488,0,0,1-.844-5.625v-.281a17.843,17.843,0,0,1,.914-6.047q.914-2.531,2.18-2.531t2.109,2.531A19.209,19.209,0,0,1,27-51.469a18.744,18.744,0,0,1-.422,3.938,13.869,13.869,0,0,1,3.375-.422,13.869,13.869,0,0,1,3.375.422,27.809,27.809,0,0,1-.281-3.937,19.209,19.209,0,0,1,.844-6.047q.844-2.531,2.109-2.531t2.109,2.531a19.209,19.209,0,0,1,.844,6.047v.281a19.488,19.488,0,0,1-.844,5.625A15.8,15.8,0,0,1,42.4-41.344,14.732,14.732,0,0,1,45-36H38.953a2.862,2.862,0,0,0-.844-2.109A2.862,2.862,0,0,0,36-38.953a2.862,2.862,0,0,0-2.109.844A2.862,2.862,0,0,0,33.047-36H27A2.665,2.665,0,0,0,26.016-38.109Z" transform="translate(670.259 1491.341)" fill="#fff"/>
    </g>
    <rect id="Rectangle_2334" data-name="Rectangle 2334" width="90.284" height="3.98" transform="translate(1020.716 1340.02)" fill="#192072"/>
    <rect id="Rectangle_2334-2" data-name="Rectangle 2334" width="55.284" height="4.98" transform="translate(1091.716 1340.02)" fill="#2453ff"/>
    <g id="Group_227" data-name="Group 227" transform="translate(382 -57.448)">
      <rect id="Rectangle_349" data-name="Rectangle 349" width="70" height="70" transform="translate(739 1358.341)" fill="#f2f2f2"/>
      <path id="Path_169" data-name="Path 169" d="M27.492-11.5H10.781L7.637,0h23Zm3.145-3.863L34.5,0a3.888,3.888,0,0,1-1.213,2.561,4.382,4.382,0,0,1-2.65,1.3h-23a4.317,4.317,0,0,1-2.561-1.3A3.888,3.888,0,0,1,3.863,0L7.637-15.363Zm7.727-5.75v3.863H0v-3.863ZM16.621-24.348a1.775,1.775,0,0,0-1.3-.539,1.928,1.928,0,0,0-1.348.539A1.758,1.758,0,0,0,13.387-23H9.613a9.75,9.75,0,0,1,1.617-3.414,9.583,9.583,0,0,1,2.7-2.7,12.451,12.451,0,0,1-.539-3.594v-.18a11.4,11.4,0,0,1,.584-3.863q.584-1.617,1.393-1.617t1.348,1.617a12.273,12.273,0,0,1,.539,3.863,11.975,11.975,0,0,1-.27,2.516,8.861,8.861,0,0,1,2.156-.27,8.861,8.861,0,0,1,2.156.27,17.767,17.767,0,0,1-.18-2.516,12.273,12.273,0,0,1,.539-3.863q.539-1.617,1.348-1.617t1.348,1.617a12.273,12.273,0,0,1,.539,3.863v.18a12.451,12.451,0,0,1-.539,3.594,10.094,10.094,0,0,1,2.74,2.7A9.412,9.412,0,0,1,28.75-23H24.887a1.828,1.828,0,0,0-.539-1.348A1.828,1.828,0,0,0,23-24.887a1.828,1.828,0,0,0-1.348.539A1.828,1.828,0,0,0,21.113-23H17.25A1.7,1.7,0,0,0,16.621-24.348Z" transform="translate(755.259 1407.341)" fill="#141823"/>
    </g>
  </g>
</svg>
