<svg xmlns="http://www.w3.org/2000/svg" width="556.846" height="79.058" viewBox="0 0 556.846 79.058">
  <g id="Group_307" data-name="Group 307" transform="translate(-103.846 -126)">
    <g id="logos-wrap-size" transform="translate(-21 -178)">
      <path id="_36px" data-name="36px" d="M.78-6.27A3.163,3.163,0,0,1,1.1-7.311a2.482,2.482,0,0,1,.609-.759,2.6,2.6,0,0,1,.846-.465,3.235,3.235,0,0,1,1.029-.159A3.133,3.133,0,0,1,4.6-8.538a2.348,2.348,0,0,1,.8.444,2.012,2.012,0,0,1,.519.7,2.159,2.159,0,0,1,.186.906,2.341,2.341,0,0,1-.105.729,1.735,1.735,0,0,1-.3.561,1.82,1.82,0,0,1-.471.408,2.812,2.812,0,0,1-.618.276,2.3,2.3,0,0,1,1.263.741,2.023,2.023,0,0,1,.423,1.311A2.46,2.46,0,0,1,6.063-1.4a2.4,2.4,0,0,1-.615.807,2.751,2.751,0,0,1-.909.51A3.425,3.425,0,0,1,3.426.1a3.54,3.54,0,0,1-1.17-.171,2.427,2.427,0,0,1-.822-.471,2.508,2.508,0,0,1-.552-.711,5.325,5.325,0,0,1-.366-.891L.978-2.34a.571.571,0,0,1,.351-.042.343.343,0,0,1,.249.2q.078.168.195.4a1.888,1.888,0,0,0,.321.45,1.722,1.722,0,0,0,.519.366,1.865,1.865,0,0,0,.8.15A1.969,1.969,0,0,0,4.2-.963a1.719,1.719,0,0,0,.564-.381,1.6,1.6,0,0,0,.339-.522,1.54,1.54,0,0,0,.114-.57,2.125,2.125,0,0,0-.09-.636,1.065,1.065,0,0,0-.336-.5,1.759,1.759,0,0,0-.675-.33,4.185,4.185,0,0,0-1.1-.12v-.774a3.494,3.494,0,0,0,.939-.12,1.786,1.786,0,0,0,.63-.312A1.167,1.167,0,0,0,4.941-5.7a1.626,1.626,0,0,0,.111-.612,1.651,1.651,0,0,0-.117-.648,1.245,1.245,0,0,0-.321-.456,1.343,1.343,0,0,0-.483-.27,1.954,1.954,0,0,0-.6-.09,1.841,1.841,0,0,0-.6.1,1.62,1.62,0,0,0-.492.267,1.572,1.572,0,0,0-.357.405,1.619,1.619,0,0,0-.2.516.519.519,0,0,1-.195.279.532.532,0,0,1-.339.039ZM10.428-.792a2.124,2.124,0,0,0,.783-.138,1.756,1.756,0,0,0,.6-.384,1.7,1.7,0,0,0,.384-.582,1.945,1.945,0,0,0,.135-.732,2.077,2.077,0,0,0-.132-.759,1.607,1.607,0,0,0-.375-.576,1.645,1.645,0,0,0-.579-.363,2.086,2.086,0,0,0-.738-.126,1.986,1.986,0,0,0-.78.147,1.784,1.784,0,0,0-.591.4,1.72,1.72,0,0,0-.372.576,1.839,1.839,0,0,0-.129.681,2.271,2.271,0,0,0,.12.756,1.64,1.64,0,0,0,.351.588,1.572,1.572,0,0,0,.564.381A2.006,2.006,0,0,0,10.428-.792ZM9.8-5.376,9.585-5.1q-.105.135-.2.267a2.487,2.487,0,0,1,.672-.324,2.672,2.672,0,0,1,.8-.114,2.812,2.812,0,0,1,.984.171,2.339,2.339,0,0,1,.807.5,2.381,2.381,0,0,1,.549.8,2.747,2.747,0,0,1,.2,1.089,2.8,2.8,0,0,1-.216,1.1,2.7,2.7,0,0,1-.6.888,2.788,2.788,0,0,1-.93.594,3.211,3.211,0,0,1-1.2.216A3.2,3.2,0,0,1,9.276-.111a2.5,2.5,0,0,1-.9-.588,2.612,2.612,0,0,1-.57-.924,3.479,3.479,0,0,1-.2-1.215,3.321,3.321,0,0,1,.249-1.2,5.859,5.859,0,0,1,.8-1.365L10.836-8.34a.675.675,0,0,1,.231-.183.736.736,0,0,1,.339-.075h.948ZM15.84-1.464a1.725,1.725,0,0,0,.642.558,1.826,1.826,0,0,0,.78.162A1.538,1.538,0,0,0,18.57-1.35a2.83,2.83,0,0,0,.456-1.728,4.312,4.312,0,0,0-.1-1.02,2,2,0,0,0-.3-.7,1.179,1.179,0,0,0-.486-.4,1.616,1.616,0,0,0-.654-.126,1.72,1.72,0,0,0-.915.24,2.638,2.638,0,0,0-.723.678Zm-.054-3.672a3.149,3.149,0,0,1,.888-.762,2.28,2.28,0,0,1,1.152-.288,2.208,2.208,0,0,1,.954.2,1.955,1.955,0,0,1,.726.594,2.849,2.849,0,0,1,.462.975,5,5,0,0,1,.162,1.338,4.194,4.194,0,0,1-.18,1.251,3.014,3.014,0,0,1-.519,1,2.439,2.439,0,0,1-.828.666,2.44,2.44,0,0,1-1.1.243,2.219,2.219,0,0,1-.957-.189,2.249,2.249,0,0,1-.7-.525V2.058H14.766V-6.078h.642a.264.264,0,0,1,.282.222ZM26.244,0H25.218a.294.294,0,0,1-.207-.069.637.637,0,0,1-.123-.153L23.358-2.6q-.024.084-.051.165a.537.537,0,0,1-.075.147L21.816-.222a1.212,1.212,0,0,1-.129.153A.255.255,0,0,1,21.5,0h-.954l2.13-3.12L20.628-6.078h1.026a.341.341,0,0,1,.192.042.4.4,0,0,1,.108.12l1.494,2.28a1.256,1.256,0,0,1,.15-.336l1.308-1.92a.564.564,0,0,1,.117-.135.235.235,0,0,1,.153-.051h.984l-2.046,2.9Z" transform="translate(207 320)" fill="#fff"/>
      <path id="_24px" data-name="24px" d="M5.922-1.014a.373.373,0,0,1,.276.1.357.357,0,0,1,.1.264V0H.564V-.366A.628.628,0,0,1,.612-.6a.661.661,0,0,1,.15-.222L3.516-3.588q.342-.348.624-.669A4.677,4.677,0,0,0,4.62-4.9a3.085,3.085,0,0,0,.306-.657,2.291,2.291,0,0,0,.108-.711,1.7,1.7,0,0,0-.12-.663A1.3,1.3,0,0,0,4.587-7.4,1.358,1.358,0,0,0,4.1-7.683a1.923,1.923,0,0,0-.606-.093,1.834,1.834,0,0,0-.606.1,1.628,1.628,0,0,0-.489.267,1.572,1.572,0,0,0-.357.405,1.619,1.619,0,0,0-.2.516.481.481,0,0,1-.195.279.556.556,0,0,1-.345.039l-.558-.1a3.118,3.118,0,0,1,.327-1.041,2.52,2.52,0,0,1,.612-.759,2.6,2.6,0,0,1,.843-.465,3.207,3.207,0,0,1,1.026-.159,3.134,3.134,0,0,1,1.02.162,2.383,2.383,0,0,1,.822.471,2.18,2.18,0,0,1,.546.753,2.45,2.45,0,0,1,.2,1.008,2.677,2.677,0,0,1-.144.891,3.534,3.534,0,0,1-.39.783,6.052,6.052,0,0,1-.567.726q-.321.354-.681.714L2.082-.87a4.473,4.473,0,0,1,.486-.1,3.028,3.028,0,0,1,.474-.039ZM11.34-3.1V-6.648q0-.156.012-.342t.036-.378L8.256-3.1Zm2.238,0v.612a.239.239,0,0,1-.057.162.222.222,0,0,1-.177.066H12.276V0H11.34V-2.262H7.524a.323.323,0,0,1-.207-.069A.3.3,0,0,1,7.206-2.5L7.1-3.048,11.28-8.6h1v5.5ZM15.84-1.464a1.725,1.725,0,0,0,.642.558,1.826,1.826,0,0,0,.78.162A1.538,1.538,0,0,0,18.57-1.35a2.83,2.83,0,0,0,.456-1.728,4.312,4.312,0,0,0-.1-1.02,2,2,0,0,0-.3-.7,1.179,1.179,0,0,0-.486-.4,1.616,1.616,0,0,0-.654-.126,1.72,1.72,0,0,0-.915.24,2.638,2.638,0,0,0-.723.678Zm-.054-3.672a3.149,3.149,0,0,1,.888-.762,2.28,2.28,0,0,1,1.152-.288,2.208,2.208,0,0,1,.954.2,1.955,1.955,0,0,1,.726.594,2.849,2.849,0,0,1,.462.975,5,5,0,0,1,.162,1.338,4.194,4.194,0,0,1-.18,1.251,3.014,3.014,0,0,1-.519,1,2.439,2.439,0,0,1-.828.666,2.44,2.44,0,0,1-1.1.243,2.219,2.219,0,0,1-.957-.189,2.249,2.249,0,0,1-.7-.525V2.058H14.766V-6.078h.642a.264.264,0,0,1,.282.222ZM26.244,0H25.218a.294.294,0,0,1-.207-.069.637.637,0,0,1-.123-.153L23.358-2.6q-.024.084-.051.165a.537.537,0,0,1-.075.147L21.816-.222a1.212,1.212,0,0,1-.129.153A.255.255,0,0,1,21.5,0h-.954l2.13-3.12L20.628-6.078h1.026a.341.341,0,0,1,.192.042.4.4,0,0,1,.108.12l1.494,2.28a1.256,1.256,0,0,1,.15-.336l1.308-1.92a.564.564,0,0,1,.117-.135.235.235,0,0,1,.153-.051h.984l-2.046,2.9Z" transform="translate(173 358)" fill="#fff"/>
      <path id="_6px" data-name="6px" d="M3.468-.792A2.124,2.124,0,0,0,4.251-.93a1.756,1.756,0,0,0,.6-.384A1.7,1.7,0,0,0,5.235-1.9a1.946,1.946,0,0,0,.135-.732,2.077,2.077,0,0,0-.132-.759,1.607,1.607,0,0,0-.375-.576,1.645,1.645,0,0,0-.579-.363,2.086,2.086,0,0,0-.738-.126,1.986,1.986,0,0,0-.78.147,1.784,1.784,0,0,0-.591.4,1.72,1.72,0,0,0-.372.576,1.839,1.839,0,0,0-.129.681,2.271,2.271,0,0,0,.12.756,1.64,1.64,0,0,0,.351.588,1.572,1.572,0,0,0,.564.381A2.007,2.007,0,0,0,3.468-.792ZM2.844-5.376,2.625-5.1q-.1.135-.2.267A2.487,2.487,0,0,1,3.1-5.154a2.672,2.672,0,0,1,.8-.114,2.812,2.812,0,0,1,.984.171,2.339,2.339,0,0,1,.807.5,2.381,2.381,0,0,1,.549.8,2.747,2.747,0,0,1,.2,1.089,2.8,2.8,0,0,1-.216,1.1,2.7,2.7,0,0,1-.6.888,2.788,2.788,0,0,1-.93.594A3.211,3.211,0,0,1,3.492.1,3.2,3.2,0,0,1,2.316-.111a2.5,2.5,0,0,1-.9-.588,2.612,2.612,0,0,1-.57-.924,3.479,3.479,0,0,1-.2-1.215A3.321,3.321,0,0,1,.9-4.041a5.859,5.859,0,0,1,.8-1.365L3.876-8.34a.675.675,0,0,1,.231-.183A.736.736,0,0,1,4.446-8.6h.948ZM8.88-1.464a1.725,1.725,0,0,0,.642.558,1.826,1.826,0,0,0,.78.162A1.538,1.538,0,0,0,11.61-1.35a2.83,2.83,0,0,0,.456-1.728,4.312,4.312,0,0,0-.1-1.02,2,2,0,0,0-.3-.7,1.179,1.179,0,0,0-.486-.4,1.616,1.616,0,0,0-.654-.126,1.72,1.72,0,0,0-.915.24A2.638,2.638,0,0,0,8.88-4.4ZM8.826-5.136A3.149,3.149,0,0,1,9.714-5.9a2.28,2.28,0,0,1,1.152-.288,2.208,2.208,0,0,1,.954.2,1.955,1.955,0,0,1,.726.594,2.849,2.849,0,0,1,.462.975,5,5,0,0,1,.162,1.338,4.194,4.194,0,0,1-.18,1.251,3.014,3.014,0,0,1-.519,1,2.439,2.439,0,0,1-.828.666,2.44,2.44,0,0,1-1.1.243,2.219,2.219,0,0,1-.957-.189,2.249,2.249,0,0,1-.7-.525V2.058H7.806V-6.078h.642a.264.264,0,0,1,.282.222ZM19.284,0H18.258a.294.294,0,0,1-.207-.069.637.637,0,0,1-.123-.153L16.4-2.6q-.024.084-.051.165a.537.537,0,0,1-.075.147L14.856-.222a1.212,1.212,0,0,1-.129.153A.255.255,0,0,1,14.538,0h-.954l2.13-3.12L13.668-6.078h1.026a.341.341,0,0,1,.192.042.4.4,0,0,1,.108.12l1.494,2.28a1.255,1.255,0,0,1,.15-.336l1.308-1.92a.564.564,0,0,1,.117-.135.235.235,0,0,1,.153-.051H19.2l-2.046,2.9Z" transform="translate(142 323)" fill="#fff"/>
      <path id="Path_13" data-name="Path 13" d="M0,0H36V36H0Z" transform="translate(166 304)" fill="#fff"/>
      <path id="gitlab" d="M23.955,14.668,22.613,10.18,19.949,1.29a.445.445,0,0,0-.867,0l-2.664,8.887H7.582L4.919,1.29a.447.447,0,0,0-.869,0L1.386,10.18.044,14.668a1.053,1.053,0,0,0,.331,1.111L12,24.945,23.625,15.78a1.048,1.048,0,0,0,.33-1.112" transform="translate(172 309.055)" fill="#141823"/>
      <path id="Line_11" data-name="Line 11" d="M24,0H0" transform="translate(172 337)" fill="none" stroke="#30ba78" stroke-width="1"/>
      <path id="Line_12" data-name="Line 12" d="M4,0H0" transform="translate(167 322)" fill="none" stroke="#30ba78" stroke-width="1"/>
      <path id="wrapper" d="M9.228-6.078,7.26,0H6.414Q6.258,0,6.2-.2L4.854-4.326a2.315,2.315,0,0,1-.078-.279q-.03-.141-.06-.279-.03.138-.06.279a2.636,2.636,0,0,1-.078.285L3.21-.2a.236.236,0,0,1-.24.2h-.8L.2-6.078h.84a.342.342,0,0,1,.213.066.324.324,0,0,1,.117.156L2.532-1.944q.1.432.162.816.054-.2.111-.4t.123-.414L4.212-5.88a.317.317,0,0,1,.105-.15A.284.284,0,0,1,4.5-6.09h.468a.315.315,0,0,1,.2.06.309.309,0,0,1,.108.15L6.528-1.944q.066.21.12.414t.1.4q.03-.2.075-.4t.1-.417L8.112-5.856a.311.311,0,0,1,.114-.159.321.321,0,0,1,.2-.063ZM11.286-4.86a2.741,2.741,0,0,1,.708-.975,1.547,1.547,0,0,1,1.026-.351,1.593,1.593,0,0,1,.369.042.99.99,0,0,1,.315.132l-.078.8a.172.172,0,0,1-.18.15A1.239,1.239,0,0,1,13.2-5.1a1.694,1.694,0,0,0-.366-.036,1.46,1.46,0,0,0-.513.084,1.2,1.2,0,0,0-.4.249,1.76,1.76,0,0,0-.318.408,3.5,3.5,0,0,0-.255.555V0H10.272V-6.078h.612a.338.338,0,0,1,.24.066.4.4,0,0,1,.09.228Zm6.552,2.124a8.9,8.9,0,0,0-1.257.117,3.575,3.575,0,0,0-.846.243,1.168,1.168,0,0,0-.474.354.762.762,0,0,0-.147.456,1.006,1.006,0,0,0,.078.414.769.769,0,0,0,.213.285.855.855,0,0,0,.318.162,1.459,1.459,0,0,0,.393.051,2.18,2.18,0,0,0,.516-.057,1.944,1.944,0,0,0,.441-.165,2.487,2.487,0,0,0,.4-.258,3.431,3.431,0,0,0,.369-.342ZM14.388-5.22a3.471,3.471,0,0,1,1.086-.726,3.353,3.353,0,0,1,1.29-.24,2.3,2.3,0,0,1,.906.168,1.858,1.858,0,0,1,.666.468,1.982,1.982,0,0,1,.408.726,3.024,3.024,0,0,1,.138.936V0h-.474a.466.466,0,0,1-.24-.051.347.347,0,0,1-.132-.2l-.12-.576a5.955,5.955,0,0,1-.468.393,2.678,2.678,0,0,1-.48.288,2.607,2.607,0,0,1-.537.18A2.938,2.938,0,0,1,15.8.1a2.19,2.19,0,0,1-.666-.1,1.539,1.539,0,0,1-.543-.3,1.4,1.4,0,0,1-.366-.5,1.751,1.751,0,0,1-.135-.717,1.337,1.337,0,0,1,.2-.693,1.735,1.735,0,0,1,.642-.591,4.211,4.211,0,0,1,1.158-.423,8.83,8.83,0,0,1,1.752-.189v-.474a1.625,1.625,0,0,0-.306-1.071,1.1,1.1,0,0,0-.894-.363,1.922,1.922,0,0,0-.663.1A2.487,2.487,0,0,0,15.513-5q-.2.123-.336.222a.485.485,0,0,1-.279.1.307.307,0,0,1-.186-.057.523.523,0,0,1-.132-.141Zm7.194,3.756a1.725,1.725,0,0,0,.642.558A1.826,1.826,0,0,0,23-.744a1.538,1.538,0,0,0,1.308-.606,2.83,2.83,0,0,0,.456-1.728,4.312,4.312,0,0,0-.1-1.02,2,2,0,0,0-.3-.7,1.179,1.179,0,0,0-.486-.4,1.616,1.616,0,0,0-.654-.126,1.72,1.72,0,0,0-.915.24,2.638,2.638,0,0,0-.723.678Zm-.054-3.672a3.149,3.149,0,0,1,.888-.762,2.28,2.28,0,0,1,1.152-.288,2.208,2.208,0,0,1,.954.2,1.955,1.955,0,0,1,.726.594,2.849,2.849,0,0,1,.462.975,5,5,0,0,1,.162,1.338,4.194,4.194,0,0,1-.18,1.251,3.014,3.014,0,0,1-.519,1,2.439,2.439,0,0,1-.828.666,2.44,2.44,0,0,1-1.1.243,2.219,2.219,0,0,1-.957-.189,2.249,2.249,0,0,1-.7-.525V2.058H20.508V-6.078h.642a.264.264,0,0,1,.282.222Zm6.78,3.672a1.725,1.725,0,0,0,.642.558,1.826,1.826,0,0,0,.78.162,1.538,1.538,0,0,0,1.308-.606,2.83,2.83,0,0,0,.456-1.728,4.312,4.312,0,0,0-.1-1.02,2,2,0,0,0-.3-.7,1.179,1.179,0,0,0-.486-.4,1.616,1.616,0,0,0-.654-.126,1.72,1.72,0,0,0-.915.24,2.638,2.638,0,0,0-.723.678Zm-.054-3.672a3.149,3.149,0,0,1,.888-.762,2.28,2.28,0,0,1,1.152-.288,2.208,2.208,0,0,1,.954.2,1.955,1.955,0,0,1,.726.594,2.849,2.849,0,0,1,.462.975A5,5,0,0,1,32.6-3.078a4.194,4.194,0,0,1-.18,1.251,3.014,3.014,0,0,1-.519,1,2.439,2.439,0,0,1-.828.666,2.44,2.44,0,0,1-1.1.243,2.219,2.219,0,0,1-.957-.189,2.249,2.249,0,0,1-.7-.525V2.058H27.234V-6.078h.642a.264.264,0,0,1,.282.222ZM38.028-3.7a2.106,2.106,0,0,0-.105-.681,1.53,1.53,0,0,0-.306-.534,1.365,1.365,0,0,0-.489-.348,1.651,1.651,0,0,0-.654-.123,1.642,1.642,0,0,0-1.215.447A2.094,2.094,0,0,0,34.7-3.7Zm.864,2.85a2.029,2.029,0,0,1-.474.417,2.951,2.951,0,0,1-.591.291,3.754,3.754,0,0,1-.651.171,3.976,3.976,0,0,1-.666.057,3.09,3.09,0,0,1-1.161-.213,2.548,2.548,0,0,1-.918-.624,2.863,2.863,0,0,1-.6-1.017,4.135,4.135,0,0,1-.216-1.392,3.542,3.542,0,0,1,.195-1.188,2.8,2.8,0,0,1,.561-.957,2.583,2.583,0,0,1,.894-.636,2.935,2.935,0,0,1,1.188-.231,2.737,2.737,0,0,1,1.011.183,2.287,2.287,0,0,1,.8.528,2.419,2.419,0,0,1,.531.852,3.245,3.245,0,0,1,.192,1.155.7.7,0,0,1-.054.336.224.224,0,0,1-.2.084H34.668a3.553,3.553,0,0,0,.159,1,2.013,2.013,0,0,0,.393.711,1.587,1.587,0,0,0,.6.426,2.061,2.061,0,0,0,.78.141,2.288,2.288,0,0,0,.693-.093,3.3,3.3,0,0,0,.5-.2,3.821,3.821,0,0,0,.351-.2.465.465,0,0,1,.243-.093.235.235,0,0,1,.2.1ZM41.31-4.86a2.741,2.741,0,0,1,.708-.975,1.547,1.547,0,0,1,1.026-.351,1.593,1.593,0,0,1,.369.042.99.99,0,0,1,.315.132l-.078.8a.172.172,0,0,1-.18.15,1.239,1.239,0,0,1-.246-.036,1.694,1.694,0,0,0-.366-.036,1.46,1.46,0,0,0-.513.084,1.2,1.2,0,0,0-.4.249,1.759,1.759,0,0,0-.318.408,3.5,3.5,0,0,0-.255.555V0H40.3V-6.078h.612a.338.338,0,0,1,.24.066.4.4,0,0,1,.09.228Z" transform="translate(208 330)" fill="#fff"/>
      <path id="logo" d="M1.95-8.838V0H.882V-8.838ZM6.24-6.174a3.1,3.1,0,0,1,1.2.222,2.572,2.572,0,0,1,.912.63,2.765,2.765,0,0,1,.579.987,3.924,3.924,0,0,1,.2,1.293,3.917,3.917,0,0,1-.2,1.3,2.769,2.769,0,0,1-.579.984,2.539,2.539,0,0,1-.912.627,3.137,3.137,0,0,1-1.2.219A3.176,3.176,0,0,1,5.031-.135a2.533,2.533,0,0,1-.915-.627,2.769,2.769,0,0,1-.579-.984,3.917,3.917,0,0,1-.2-1.3,3.924,3.924,0,0,1,.2-1.293,2.765,2.765,0,0,1,.579-.987,2.566,2.566,0,0,1,.915-.63A3.138,3.138,0,0,1,6.24-6.174Zm0,5.424a1.56,1.56,0,0,0,1.344-.6,2.792,2.792,0,0,0,.444-1.683,2.818,2.818,0,0,0-.444-1.692A1.557,1.557,0,0,0,6.24-5.334a1.886,1.886,0,0,0-.8.156,1.477,1.477,0,0,0-.564.45,2,2,0,0,0-.336.723,3.876,3.876,0,0,0-.111.969,2.778,2.778,0,0,0,.447,1.683A1.582,1.582,0,0,0,6.24-.75Zm6.33-2.22a1.655,1.655,0,0,0,.57-.09,1.163,1.163,0,0,0,.414-.252,1.031,1.031,0,0,0,.252-.387,1.405,1.405,0,0,0,.084-.5,1.182,1.182,0,0,0-.339-.888,1.35,1.35,0,0,0-.981-.33,1.359,1.359,0,0,0-.987.33,1.182,1.182,0,0,0-.339.888,1.362,1.362,0,0,0,.087.5,1.063,1.063,0,0,0,.255.387A1.163,1.163,0,0,0,12-3.06,1.655,1.655,0,0,0,12.57-2.97ZM14.5.33a.513.513,0,0,0-.126-.36.84.84,0,0,0-.339-.216,2.181,2.181,0,0,0-.5-.111q-.282-.033-.6-.051L12.3-.444q-.324-.018-.624-.06a1.673,1.673,0,0,0-.549.393.8.8,0,0,0-.213.555.734.734,0,0,0,.105.381.9.9,0,0,0,.321.306,1.879,1.879,0,0,0,.543.2,3.483,3.483,0,0,0,.771.075,3.494,3.494,0,0,0,.774-.078,1.943,1.943,0,0,0,.579-.222A1.09,1.09,0,0,0,14.37.768.8.8,0,0,0,14.5.33Zm1.086-6.168v.4q0,.2-.252.252l-.69.09a1.884,1.884,0,0,1,.2.876,1.87,1.87,0,0,1-.171.807A1.848,1.848,0,0,1,14.2-2.8a2.09,2.09,0,0,1-.72.4,2.906,2.906,0,0,1-.912.138,3.075,3.075,0,0,1-.8-.1,1.08,1.08,0,0,0-.294.255.45.45,0,0,0-.1.273.362.362,0,0,0,.177.327,1.267,1.267,0,0,0,.465.159,5.024,5.024,0,0,0,.657.06q.369.012.756.039a7.1,7.1,0,0,1,.756.093,2.286,2.286,0,0,1,.657.216,1.239,1.239,0,0,1,.465.414,1.206,1.206,0,0,1,.177.684,1.588,1.588,0,0,1-.195.756,2.045,2.045,0,0,1-.561.651,2.886,2.886,0,0,1-.9.456,3.9,3.9,0,0,1-1.2.171,4.571,4.571,0,0,1-1.164-.132,2.732,2.732,0,0,1-.828-.354,1.542,1.542,0,0,1-.5-.513A1.217,1.217,0,0,1,9.978.582,1.1,1.1,0,0,1,10.26-.18a1.95,1.95,0,0,1,.774-.5A1.108,1.108,0,0,1,10.6-1a.852.852,0,0,1-.159-.543.845.845,0,0,1,.048-.273,1.122,1.122,0,0,1,.147-.282,1.507,1.507,0,0,1,.243-.267,1.58,1.58,0,0,1,.336-.222,1.868,1.868,0,0,1-.7-.669,1.837,1.837,0,0,1-.252-.969,1.87,1.87,0,0,1,.171-.807,1.784,1.784,0,0,1,.477-.618,2.182,2.182,0,0,1,.729-.393,2.975,2.975,0,0,1,.927-.138,2.987,2.987,0,0,1,.738.087,2.337,2.337,0,0,1,.624.255Zm3.576-.336a3.1,3.1,0,0,1,1.2.222,2.572,2.572,0,0,1,.912.63,2.765,2.765,0,0,1,.579.987,3.924,3.924,0,0,1,.2,1.293,3.917,3.917,0,0,1-.2,1.3,2.77,2.77,0,0,1-.579.984,2.539,2.539,0,0,1-.912.627,3.137,3.137,0,0,1-1.2.219,3.176,3.176,0,0,1-1.209-.219,2.533,2.533,0,0,1-.915-.627,2.769,2.769,0,0,1-.579-.984,3.917,3.917,0,0,1-.2-1.3,3.924,3.924,0,0,1,.2-1.293,2.765,2.765,0,0,1,.579-.987,2.566,2.566,0,0,1,.915-.63A3.138,3.138,0,0,1,19.158-6.174Zm0,5.424a1.56,1.56,0,0,0,1.344-.6,2.792,2.792,0,0,0,.444-1.683A2.818,2.818,0,0,0,20.5-4.728a1.557,1.557,0,0,0-1.344-.606,1.886,1.886,0,0,0-.8.156,1.477,1.477,0,0,0-.564.45,2,2,0,0,0-.336.723,3.876,3.876,0,0,0-.111.969A2.778,2.778,0,0,0,17.8-1.353,1.582,1.582,0,0,0,19.158-.75Z" transform="translate(174 368)" fill="#fff"/>
      <path id="margin" d="M.846,0V-6.078h.642a.264.264,0,0,1,.282.222l.078.624A3.094,3.094,0,0,1,2.6-5.91a1.788,1.788,0,0,1,.972-.264,1.43,1.43,0,0,1,.993.342,1.924,1.924,0,0,1,.549.924,2,2,0,0,1,.339-.57,1.934,1.934,0,0,1,.465-.4A1.969,1.969,0,0,1,6.471-6.1a2.452,2.452,0,0,1,.591-.072,2.248,2.248,0,0,1,.855.153,1.693,1.693,0,0,1,.636.447,1.991,1.991,0,0,1,.4.723,3.2,3.2,0,0,1,.138.981V0H8.016V-3.87A1.638,1.638,0,0,0,7.7-4.953a1.113,1.113,0,0,0-.9-.369,1.359,1.359,0,0,0-.5.093,1.207,1.207,0,0,0-.417.273A1.28,1.28,0,0,0,5.6-4.5a1.757,1.757,0,0,0-.1.633V0H4.422V-3.87a1.7,1.7,0,0,0-.294-1.092,1.043,1.043,0,0,0-.858-.36,1.341,1.341,0,0,0-.732.213,2.429,2.429,0,0,0-.618.579V0ZM14.01-2.736a8.9,8.9,0,0,0-1.257.117,3.575,3.575,0,0,0-.846.243,1.168,1.168,0,0,0-.474.354.762.762,0,0,0-.147.456,1.006,1.006,0,0,0,.078.414.769.769,0,0,0,.213.285A.855.855,0,0,0,11.9-.7a1.459,1.459,0,0,0,.393.051A2.18,2.18,0,0,0,12.8-.711a1.944,1.944,0,0,0,.441-.165,2.487,2.487,0,0,0,.4-.258,3.431,3.431,0,0,0,.369-.342ZM10.56-5.22a3.471,3.471,0,0,1,1.086-.726,3.353,3.353,0,0,1,1.29-.24,2.3,2.3,0,0,1,.906.168,1.858,1.858,0,0,1,.666.468,1.982,1.982,0,0,1,.408.726,3.024,3.024,0,0,1,.138.936V0H14.58a.466.466,0,0,1-.24-.051.347.347,0,0,1-.132-.2l-.12-.576a5.956,5.956,0,0,1-.468.393,2.678,2.678,0,0,1-.48.288,2.607,2.607,0,0,1-.537.18A2.938,2.938,0,0,1,11.97.1,2.19,2.19,0,0,1,11.3,0a1.539,1.539,0,0,1-.543-.3,1.4,1.4,0,0,1-.366-.5,1.751,1.751,0,0,1-.135-.717,1.337,1.337,0,0,1,.2-.693A1.735,1.735,0,0,1,11.1-2.8a4.211,4.211,0,0,1,1.158-.423,8.83,8.83,0,0,1,1.752-.189v-.474A1.625,1.625,0,0,0,13.7-4.959a1.1,1.1,0,0,0-.894-.363,1.922,1.922,0,0,0-.663.1A2.487,2.487,0,0,0,11.685-5q-.2.123-.336.222a.485.485,0,0,1-.279.1.307.307,0,0,1-.186-.057.523.523,0,0,1-.132-.141Zm7.134.36a2.741,2.741,0,0,1,.708-.975,1.547,1.547,0,0,1,1.026-.351,1.593,1.593,0,0,1,.369.042.99.99,0,0,1,.315.132l-.078.8a.172.172,0,0,1-.18.15,1.239,1.239,0,0,1-.246-.036,1.694,1.694,0,0,0-.366-.036,1.46,1.46,0,0,0-.513.084,1.2,1.2,0,0,0-.4.249,1.76,1.76,0,0,0-.318.408,3.5,3.5,0,0,0-.255.555V0H16.68V-6.078h.612a.338.338,0,0,1,.24.066.4.4,0,0,1,.09.228Zm5.334,1.89a1.655,1.655,0,0,0,.57-.09,1.163,1.163,0,0,0,.414-.252,1.031,1.031,0,0,0,.252-.387,1.405,1.405,0,0,0,.084-.5,1.182,1.182,0,0,0-.339-.888,1.35,1.35,0,0,0-.981-.33,1.359,1.359,0,0,0-.987.33,1.182,1.182,0,0,0-.339.888,1.362,1.362,0,0,0,.087.5,1.063,1.063,0,0,0,.255.387,1.163,1.163,0,0,0,.414.252A1.655,1.655,0,0,0,23.028-2.97ZM24.954.33a.513.513,0,0,0-.126-.36.84.84,0,0,0-.339-.216,2.181,2.181,0,0,0-.495-.111q-.282-.033-.6-.051l-.639-.036q-.324-.018-.624-.06a1.673,1.673,0,0,0-.549.393.8.8,0,0,0-.213.555.734.734,0,0,0,.1.381.9.9,0,0,0,.321.306,1.879,1.879,0,0,0,.543.2,3.483,3.483,0,0,0,.771.075,3.494,3.494,0,0,0,.774-.078,1.943,1.943,0,0,0,.579-.222,1.09,1.09,0,0,0,.363-.342A.8.8,0,0,0,24.954.33ZM26.04-5.838v.4q0,.2-.252.252l-.69.09a1.884,1.884,0,0,1,.2.876,1.87,1.87,0,0,1-.171.807,1.848,1.848,0,0,1-.471.621,2.09,2.09,0,0,1-.72.4,2.906,2.906,0,0,1-.912.138,3.075,3.075,0,0,1-.8-.1,1.08,1.08,0,0,0-.294.255.45.45,0,0,0-.1.273A.362.362,0,0,0,22-1.509a1.267,1.267,0,0,0,.465.159,5.024,5.024,0,0,0,.657.06q.369.012.756.039a7.1,7.1,0,0,1,.756.093,2.286,2.286,0,0,1,.657.216,1.239,1.239,0,0,1,.465.414,1.206,1.206,0,0,1,.177.684,1.588,1.588,0,0,1-.195.756,2.045,2.045,0,0,1-.561.651,2.886,2.886,0,0,1-.9.456,3.9,3.9,0,0,1-1.2.171,4.571,4.571,0,0,1-1.164-.132A2.732,2.732,0,0,1,21.1,1.7a1.542,1.542,0,0,1-.495-.513,1.217,1.217,0,0,1-.165-.609,1.1,1.1,0,0,1,.282-.762,1.95,1.95,0,0,1,.774-.5A1.108,1.108,0,0,1,21.063-1a.852.852,0,0,1-.159-.543.845.845,0,0,1,.048-.273A1.122,1.122,0,0,1,21.1-2.1a1.507,1.507,0,0,1,.243-.267,1.58,1.58,0,0,1,.336-.222,1.868,1.868,0,0,1-.7-.669,1.837,1.837,0,0,1-.252-.969,1.87,1.87,0,0,1,.171-.807,1.784,1.784,0,0,1,.477-.618,2.182,2.182,0,0,1,.729-.393,2.975,2.975,0,0,1,.927-.138,2.987,2.987,0,0,1,.738.087,2.337,2.337,0,0,1,.624.255Zm2.238-.24V0H27.21V-6.078Zm.228-1.908a.68.68,0,0,1-.063.291.838.838,0,0,1-.168.24.771.771,0,0,1-.246.165.751.751,0,0,1-.3.06.708.708,0,0,1-.291-.06.754.754,0,0,1-.237-.165.819.819,0,0,1-.162-.24.708.708,0,0,1-.06-.291.751.751,0,0,1,.06-.3.8.8,0,0,1,.162-.246.754.754,0,0,1,.237-.165.708.708,0,0,1,.291-.06.751.751,0,0,1,.3.06.771.771,0,0,1,.246.165.814.814,0,0,1,.168.246A.72.72,0,0,1,28.506-7.986ZM31.038-5.2a3.606,3.606,0,0,1,.42-.4,2.769,2.769,0,0,1,.471-.309,2.391,2.391,0,0,1,.528-.2,2.507,2.507,0,0,1,.6-.069,2.195,2.195,0,0,1,.879.165,1.7,1.7,0,0,1,.636.468,2.067,2.067,0,0,1,.387.729,3.172,3.172,0,0,1,.132.942V0H34.02V-3.87a1.636,1.636,0,0,0-.315-1.071,1.17,1.17,0,0,0-.957-.381,1.8,1.8,0,0,0-.885.228,2.915,2.915,0,0,0-.759.618V0H30.03V-6.078h.642a.264.264,0,0,1,.282.222Z" transform="translate(124 334)" fill="#fff"/>
    </g>
    <g id="Group_180" data-name="Group 180" transform="translate(-187 -813)">
      <g id="Group_59" data-name="Group 59" transform="translate(276.591 252.591)">
        <rect id="Rectangle_279" data-name="Rectangle 279" width="36" height="36" transform="translate(316.409 686.409)" fill="#fff"/>
        <path id="iconfinder_06-facebook_104498" d="M29.134,13.867h-3.8V11.376a1.014,1.014,0,0,1,1.057-1.154h2.68V6.11L25.382,6.1c-4.1,0-5.03,3.067-5.03,5.03v2.741h-2.37V18.1h2.37V30.1h4.984V18.1H28.7Z" transform="translate(310.827 686.313)" fill="#141823"/>
        <path id="Line_11-2" data-name="Line 11" d="M24,0H0" transform="translate(324.409 693.409) rotate(90)" fill="none" stroke="#30ba78" stroke-width="1"/>
      </g>
      <path id="_24px-2" data-name="24px" d="M5.922-1.014a.373.373,0,0,1,.276.1.357.357,0,0,1,.1.264V0H.564V-.366A.628.628,0,0,1,.612-.6a.661.661,0,0,1,.15-.222L3.516-3.588q.342-.348.624-.669A4.677,4.677,0,0,0,4.62-4.9a3.085,3.085,0,0,0,.306-.657,2.291,2.291,0,0,0,.108-.711,1.7,1.7,0,0,0-.12-.663A1.3,1.3,0,0,0,4.587-7.4,1.358,1.358,0,0,0,4.1-7.683a1.923,1.923,0,0,0-.606-.093,1.834,1.834,0,0,0-.606.1,1.628,1.628,0,0,0-.489.267,1.572,1.572,0,0,0-.357.405,1.619,1.619,0,0,0-.2.516.481.481,0,0,1-.195.279.556.556,0,0,1-.345.039l-.558-.1a3.118,3.118,0,0,1,.327-1.041,2.52,2.52,0,0,1,.612-.759,2.6,2.6,0,0,1,.843-.465,3.207,3.207,0,0,1,1.026-.159,3.134,3.134,0,0,1,1.02.162,2.383,2.383,0,0,1,.822.471,2.18,2.18,0,0,1,.546.753,2.45,2.45,0,0,1,.2,1.008,2.677,2.677,0,0,1-.144.891,3.534,3.534,0,0,1-.39.783,6.052,6.052,0,0,1-.567.726q-.321.354-.681.714L2.082-.87a4.473,4.473,0,0,1,.486-.1,3.028,3.028,0,0,1,.474-.039ZM11.34-3.1V-6.648q0-.156.012-.342t.036-.378L8.256-3.1Zm2.238,0v.612a.239.239,0,0,1-.057.162.222.222,0,0,1-.177.066H12.276V0H11.34V-2.262H7.524a.323.323,0,0,1-.207-.069A.3.3,0,0,1,7.206-2.5L7.1-3.048,11.28-8.6h1v5.5ZM15.84-1.464a1.725,1.725,0,0,0,.642.558,1.826,1.826,0,0,0,.78.162A1.538,1.538,0,0,0,18.57-1.35a2.83,2.83,0,0,0,.456-1.728,4.312,4.312,0,0,0-.1-1.02,2,2,0,0,0-.3-.7,1.179,1.179,0,0,0-.486-.4,1.616,1.616,0,0,0-.654-.126,1.72,1.72,0,0,0-.915.24,2.638,2.638,0,0,0-.723.678Zm-.054-3.672a3.149,3.149,0,0,1,.888-.762,2.28,2.28,0,0,1,1.152-.288,2.208,2.208,0,0,1,.954.2,1.955,1.955,0,0,1,.726.594,2.849,2.849,0,0,1,.462.975,5,5,0,0,1,.162,1.338,4.194,4.194,0,0,1-.18,1.251,3.014,3.014,0,0,1-.519,1,2.439,2.439,0,0,1-.828.666,2.44,2.44,0,0,1-1.1.243,2.219,2.219,0,0,1-.957-.189,2.249,2.249,0,0,1-.7-.525V2.058H14.766V-6.078h.642a.264.264,0,0,1,.282.222ZM26.244,0H25.218a.294.294,0,0,1-.207-.069.637.637,0,0,1-.123-.153L23.358-2.6q-.024.084-.051.165a.537.537,0,0,1-.075.147L21.816-.222a1.212,1.212,0,0,1-.129.153A.255.255,0,0,1,21.5,0h-.954l2.13-3.12L20.628-6.078h1.026a.341.341,0,0,1,.192.042.4.4,0,0,1,.108.12l1.494,2.28a1.256,1.256,0,0,1,.15-.336l1.308-1.92a.564.564,0,0,1,.117-.135.235.235,0,0,1,.153-.051h.984l-2.046,2.9Z" transform="translate(561 951)" fill="#fff"/>
      <path id="logo-2" data-name="logo" d="M1.95-8.838V0H.882V-8.838ZM6.24-6.174a3.1,3.1,0,0,1,1.2.222,2.572,2.572,0,0,1,.912.63,2.765,2.765,0,0,1,.579.987,3.924,3.924,0,0,1,.2,1.293,3.917,3.917,0,0,1-.2,1.3,2.769,2.769,0,0,1-.579.984,2.539,2.539,0,0,1-.912.627,3.137,3.137,0,0,1-1.2.219A3.176,3.176,0,0,1,5.031-.135a2.533,2.533,0,0,1-.915-.627,2.769,2.769,0,0,1-.579-.984,3.917,3.917,0,0,1-.2-1.3,3.924,3.924,0,0,1,.2-1.293,2.765,2.765,0,0,1,.579-.987,2.566,2.566,0,0,1,.915-.63A3.138,3.138,0,0,1,6.24-6.174Zm0,5.424a1.56,1.56,0,0,0,1.344-.6,2.792,2.792,0,0,0,.444-1.683,2.818,2.818,0,0,0-.444-1.692A1.557,1.557,0,0,0,6.24-5.334a1.886,1.886,0,0,0-.8.156,1.477,1.477,0,0,0-.564.45,2,2,0,0,0-.336.723,3.876,3.876,0,0,0-.111.969,2.778,2.778,0,0,0,.447,1.683A1.582,1.582,0,0,0,6.24-.75Zm6.33-2.22a1.655,1.655,0,0,0,.57-.09,1.163,1.163,0,0,0,.414-.252,1.031,1.031,0,0,0,.252-.387,1.405,1.405,0,0,0,.084-.5,1.182,1.182,0,0,0-.339-.888,1.35,1.35,0,0,0-.981-.33,1.359,1.359,0,0,0-.987.33,1.182,1.182,0,0,0-.339.888,1.362,1.362,0,0,0,.087.5,1.063,1.063,0,0,0,.255.387A1.163,1.163,0,0,0,12-3.06,1.655,1.655,0,0,0,12.57-2.97ZM14.5.33a.513.513,0,0,0-.126-.36.84.84,0,0,0-.339-.216,2.181,2.181,0,0,0-.5-.111q-.282-.033-.6-.051L12.3-.444q-.324-.018-.624-.06a1.673,1.673,0,0,0-.549.393.8.8,0,0,0-.213.555.734.734,0,0,0,.105.381.9.9,0,0,0,.321.306,1.879,1.879,0,0,0,.543.2,3.483,3.483,0,0,0,.771.075,3.494,3.494,0,0,0,.774-.078,1.943,1.943,0,0,0,.579-.222A1.09,1.09,0,0,0,14.37.768.8.8,0,0,0,14.5.33Zm1.086-6.168v.4q0,.2-.252.252l-.69.09a1.884,1.884,0,0,1,.2.876,1.87,1.87,0,0,1-.171.807A1.848,1.848,0,0,1,14.2-2.8a2.09,2.09,0,0,1-.72.4,2.906,2.906,0,0,1-.912.138,3.075,3.075,0,0,1-.8-.1,1.08,1.08,0,0,0-.294.255.45.45,0,0,0-.1.273.362.362,0,0,0,.177.327,1.267,1.267,0,0,0,.465.159,5.024,5.024,0,0,0,.657.06q.369.012.756.039a7.1,7.1,0,0,1,.756.093,2.286,2.286,0,0,1,.657.216,1.239,1.239,0,0,1,.465.414,1.206,1.206,0,0,1,.177.684,1.588,1.588,0,0,1-.195.756,2.045,2.045,0,0,1-.561.651,2.886,2.886,0,0,1-.9.456,3.9,3.9,0,0,1-1.2.171,4.571,4.571,0,0,1-1.164-.132,2.732,2.732,0,0,1-.828-.354,1.542,1.542,0,0,1-.5-.513A1.217,1.217,0,0,1,9.978.582,1.1,1.1,0,0,1,10.26-.18a1.95,1.95,0,0,1,.774-.5A1.108,1.108,0,0,1,10.6-1a.852.852,0,0,1-.159-.543.845.845,0,0,1,.048-.273,1.122,1.122,0,0,1,.147-.282,1.507,1.507,0,0,1,.243-.267,1.58,1.58,0,0,1,.336-.222,1.868,1.868,0,0,1-.7-.669,1.837,1.837,0,0,1-.252-.969,1.87,1.87,0,0,1,.171-.807,1.784,1.784,0,0,1,.477-.618,2.182,2.182,0,0,1,.729-.393,2.975,2.975,0,0,1,.927-.138,2.987,2.987,0,0,1,.738.087,2.337,2.337,0,0,1,.624.255Zm3.576-.336a3.1,3.1,0,0,1,1.2.222,2.572,2.572,0,0,1,.912.63,2.765,2.765,0,0,1,.579.987,3.924,3.924,0,0,1,.2,1.293,3.917,3.917,0,0,1-.2,1.3,2.77,2.77,0,0,1-.579.984,2.539,2.539,0,0,1-.912.627,3.137,3.137,0,0,1-1.2.219,3.176,3.176,0,0,1-1.209-.219,2.533,2.533,0,0,1-.915-.627,2.769,2.769,0,0,1-.579-.984,3.917,3.917,0,0,1-.2-1.3,3.924,3.924,0,0,1,.2-1.293,2.765,2.765,0,0,1,.579-.987,2.566,2.566,0,0,1,.915-.63A3.138,3.138,0,0,1,19.158-6.174Zm0,5.424a1.56,1.56,0,0,0,1.344-.6,2.792,2.792,0,0,0,.444-1.683A2.818,2.818,0,0,0,20.5-4.728a1.557,1.557,0,0,0-1.344-.606,1.886,1.886,0,0,0-.8.156,1.477,1.477,0,0,0-.564.45,2,2,0,0,0-.336.723,3.876,3.876,0,0,0-.111.969A2.778,2.778,0,0,0,17.8-1.353,1.582,1.582,0,0,0,19.158-.75Z" transform="translate(564 961)" fill="#fff"/>
      <path id="logo-3" data-name="logo" d="M1.92-5.268a3.226,3.226,0,0,1,.864-.66,2.337,2.337,0,0,1,1.092-.246,2.195,2.195,0,0,1,.879.165,1.7,1.7,0,0,1,.636.468,2.067,2.067,0,0,1,.387.729,3.172,3.172,0,0,1,.132.942V0H4.836V-3.87a1.636,1.636,0,0,0-.315-1.071,1.17,1.17,0,0,0-.957-.381,1.8,1.8,0,0,0-.885.228,2.915,2.915,0,0,0-.759.618V0H.846V-8.838H1.92ZM11.61-3.7a2.106,2.106,0,0,0-.105-.681,1.53,1.53,0,0,0-.306-.534,1.365,1.365,0,0,0-.489-.348,1.651,1.651,0,0,0-.654-.123,1.642,1.642,0,0,0-1.215.447A2.094,2.094,0,0,0,8.286-3.7Zm.864,2.85A2.029,2.029,0,0,1,12-.435a2.951,2.951,0,0,1-.591.291,3.754,3.754,0,0,1-.651.171,3.976,3.976,0,0,1-.666.057A3.091,3.091,0,0,1,8.931-.129a2.548,2.548,0,0,1-.918-.624,2.863,2.863,0,0,1-.6-1.017,4.135,4.135,0,0,1-.216-1.392A3.542,3.542,0,0,1,7.389-4.35a2.8,2.8,0,0,1,.561-.957,2.583,2.583,0,0,1,.894-.636,2.935,2.935,0,0,1,1.188-.231,2.737,2.737,0,0,1,1.011.183,2.287,2.287,0,0,1,.8.528,2.419,2.419,0,0,1,.531.852,3.245,3.245,0,0,1,.192,1.155.7.7,0,0,1-.054.336.224.224,0,0,1-.2.084H8.25a3.553,3.553,0,0,0,.159,1,2.013,2.013,0,0,0,.393.711A1.587,1.587,0,0,0,9.4-.9a2.061,2.061,0,0,0,.78.141,2.288,2.288,0,0,0,.693-.093,3.3,3.3,0,0,0,.5-.2,3.822,3.822,0,0,0,.351-.2.465.465,0,0,1,.243-.093.235.235,0,0,1,.2.1Zm2.532-5.226V0H13.938V-6.078Zm.228-1.908a.68.68,0,0,1-.063.291.838.838,0,0,1-.168.24.771.771,0,0,1-.246.165.751.751,0,0,1-.3.06.708.708,0,0,1-.291-.06.754.754,0,0,1-.237-.165.819.819,0,0,1-.162-.24.708.708,0,0,1-.06-.291.751.751,0,0,1,.06-.3.8.8,0,0,1,.162-.246.754.754,0,0,1,.237-.165.708.708,0,0,1,.291-.06.751.751,0,0,1,.3.06A.771.771,0,0,1,15-8.529a.814.814,0,0,1,.168.246A.72.72,0,0,1,15.234-7.986ZM18.876-2.97a1.655,1.655,0,0,0,.57-.09,1.163,1.163,0,0,0,.414-.252,1.031,1.031,0,0,0,.252-.387,1.405,1.405,0,0,0,.084-.5,1.182,1.182,0,0,0-.339-.888,1.35,1.35,0,0,0-.981-.33,1.359,1.359,0,0,0-.987.33,1.182,1.182,0,0,0-.339.888,1.362,1.362,0,0,0,.087.5,1.063,1.063,0,0,0,.255.387,1.163,1.163,0,0,0,.414.252A1.655,1.655,0,0,0,18.876-2.97ZM20.8.33a.513.513,0,0,0-.126-.36.84.84,0,0,0-.339-.216,2.181,2.181,0,0,0-.5-.111q-.282-.033-.6-.051l-.639-.036q-.324-.018-.624-.06a1.673,1.673,0,0,0-.549.393.8.8,0,0,0-.213.555.734.734,0,0,0,.1.381.9.9,0,0,0,.321.306,1.879,1.879,0,0,0,.543.2,3.483,3.483,0,0,0,.771.075,3.494,3.494,0,0,0,.774-.078,1.943,1.943,0,0,0,.579-.222,1.09,1.09,0,0,0,.363-.342A.8.8,0,0,0,20.8.33Zm1.086-6.168v.4q0,.2-.252.252l-.69.09a1.884,1.884,0,0,1,.2.876,1.87,1.87,0,0,1-.171.807,1.848,1.848,0,0,1-.471.621,2.09,2.09,0,0,1-.72.4,2.906,2.906,0,0,1-.912.138,3.075,3.075,0,0,1-.8-.1,1.08,1.08,0,0,0-.294.255.45.45,0,0,0-.1.273.362.362,0,0,0,.177.327,1.267,1.267,0,0,0,.465.159,5.024,5.024,0,0,0,.657.06q.369.012.756.039a7.1,7.1,0,0,1,.756.093,2.286,2.286,0,0,1,.657.216,1.239,1.239,0,0,1,.465.414,1.206,1.206,0,0,1,.177.684,1.588,1.588,0,0,1-.195.756,2.045,2.045,0,0,1-.561.651,2.886,2.886,0,0,1-.9.456,3.9,3.9,0,0,1-1.2.171,4.571,4.571,0,0,1-1.164-.132,2.732,2.732,0,0,1-.828-.354,1.543,1.543,0,0,1-.5-.513,1.217,1.217,0,0,1-.165-.609,1.1,1.1,0,0,1,.282-.762,1.95,1.95,0,0,1,.774-.5A1.108,1.108,0,0,1,16.911-1a.852.852,0,0,1-.159-.543.845.845,0,0,1,.048-.273,1.122,1.122,0,0,1,.147-.282,1.507,1.507,0,0,1,.243-.267,1.58,1.58,0,0,1,.336-.222,1.868,1.868,0,0,1-.7-.669,1.837,1.837,0,0,1-.252-.969,1.87,1.87,0,0,1,.171-.807,1.784,1.784,0,0,1,.477-.618,2.182,2.182,0,0,1,.729-.393,2.975,2.975,0,0,1,.927-.138,2.987,2.987,0,0,1,.738.087,2.337,2.337,0,0,1,.624.255Zm2.184.57a3.226,3.226,0,0,1,.864-.66,2.337,2.337,0,0,1,1.092-.246,2.195,2.195,0,0,1,.879.165,1.7,1.7,0,0,1,.636.468,2.067,2.067,0,0,1,.387.729,3.172,3.172,0,0,1,.132.942V0H26.988V-3.87a1.636,1.636,0,0,0-.315-1.071,1.17,1.17,0,0,0-.957-.381,1.8,1.8,0,0,0-.885.228,2.915,2.915,0,0,0-.759.618V0H23V-8.838h1.074ZM31.476.1a1.465,1.465,0,0,1-1.107-.4,1.6,1.6,0,0,1-.387-1.158v-3.72H29.25a.239.239,0,0,1-.162-.057.222.222,0,0,1-.066-.177v-.426l1-.126.246-1.878a.261.261,0,0,1,.081-.147.236.236,0,0,1,.165-.057h.54v2.094h1.758v.774H31.05v3.648a.776.776,0,0,0,.186.57.65.65,0,0,0,.48.186.847.847,0,0,0,.291-.045,1.249,1.249,0,0,0,.213-.1q.09-.054.153-.1a.2.2,0,0,1,.111-.045.184.184,0,0,1,.15.1l.312.51a1.99,1.99,0,0,1-.666.4A2.262,2.262,0,0,1,31.476.1Z" transform="translate(554 973)" fill="#fff"/>
      <line id="Line_161" data-name="Line 161" y2="4" transform="translate(610.5 970.5)" fill="none" stroke="#00c88c" stroke-width="1"/>
      <path id="_6px-2" data-name="6px" d="M3.468-.792A2.124,2.124,0,0,0,4.251-.93a1.756,1.756,0,0,0,.6-.384A1.7,1.7,0,0,0,5.235-1.9a1.946,1.946,0,0,0,.135-.732,2.077,2.077,0,0,0-.132-.759,1.607,1.607,0,0,0-.375-.576,1.645,1.645,0,0,0-.579-.363,2.086,2.086,0,0,0-.738-.126,1.986,1.986,0,0,0-.78.147,1.784,1.784,0,0,0-.591.4,1.72,1.72,0,0,0-.372.576,1.839,1.839,0,0,0-.129.681,2.271,2.271,0,0,0,.12.756,1.64,1.64,0,0,0,.351.588,1.572,1.572,0,0,0,.564.381A2.007,2.007,0,0,0,3.468-.792ZM2.844-5.376,2.625-5.1q-.1.135-.2.267A2.487,2.487,0,0,1,3.1-5.154a2.672,2.672,0,0,1,.8-.114,2.812,2.812,0,0,1,.984.171,2.339,2.339,0,0,1,.807.5,2.381,2.381,0,0,1,.549.8,2.747,2.747,0,0,1,.2,1.089,2.8,2.8,0,0,1-.216,1.1,2.7,2.7,0,0,1-.6.888,2.788,2.788,0,0,1-.93.594A3.211,3.211,0,0,1,3.492.1,3.2,3.2,0,0,1,2.316-.111a2.5,2.5,0,0,1-.9-.588,2.612,2.612,0,0,1-.57-.924,3.479,3.479,0,0,1-.2-1.215A3.321,3.321,0,0,1,.9-4.041a5.859,5.859,0,0,1,.8-1.365L3.876-8.34a.675.675,0,0,1,.231-.183A.736.736,0,0,1,4.446-8.6h.948ZM8.88-1.464a1.725,1.725,0,0,0,.642.558,1.826,1.826,0,0,0,.78.162A1.538,1.538,0,0,0,11.61-1.35a2.83,2.83,0,0,0,.456-1.728,4.312,4.312,0,0,0-.1-1.02,2,2,0,0,0-.3-.7,1.179,1.179,0,0,0-.486-.4,1.616,1.616,0,0,0-.654-.126,1.72,1.72,0,0,0-.915.24A2.638,2.638,0,0,0,8.88-4.4ZM8.826-5.136A3.149,3.149,0,0,1,9.714-5.9a2.28,2.28,0,0,1,1.152-.288,2.208,2.208,0,0,1,.954.2,1.955,1.955,0,0,1,.726.594,2.849,2.849,0,0,1,.462.975,5,5,0,0,1,.162,1.338,4.194,4.194,0,0,1-.18,1.251,3.014,3.014,0,0,1-.519,1,2.439,2.439,0,0,1-.828.666,2.44,2.44,0,0,1-1.1.243,2.219,2.219,0,0,1-.957-.189,2.249,2.249,0,0,1-.7-.525V2.058H7.806V-6.078h.642a.264.264,0,0,1,.282.222ZM19.284,0H18.258a.294.294,0,0,1-.207-.069.637.637,0,0,1-.123-.153L16.4-2.6q-.024.084-.051.165a.537.537,0,0,1-.075.147L14.856-.222a1.212,1.212,0,0,1-.129.153A.255.255,0,0,1,14.538,0h-.954l2.13-3.12L13.668-6.078h1.026a.341.341,0,0,1,.192.042.4.4,0,0,1,.108.12l1.494,2.28a1.255,1.255,0,0,1,.15-.336l1.308-1.92a.564.564,0,0,1,.117-.135.235.235,0,0,1,.153-.051H19.2l-2.046,2.9Z" transform="translate(593 993)" fill="#fff"/>
      <path id="_6px-3" data-name="6px" d="M2.712.1a1.465,1.465,0,0,1-1.107-.4,1.6,1.6,0,0,1-.387-1.158v-3.72H.486a.239.239,0,0,1-.162-.057.222.222,0,0,1-.066-.177v-.426l1-.126L1.5-7.848a.261.261,0,0,1,.081-.147.236.236,0,0,1,.165-.057h.54v2.094H4.044v.774H2.286v3.648a.776.776,0,0,0,.186.57.65.65,0,0,0,.48.186.847.847,0,0,0,.291-.045,1.249,1.249,0,0,0,.213-.1q.09-.054.153-.1a.2.2,0,0,1,.111-.045.184.184,0,0,1,.15.1l.312.51a1.99,1.99,0,0,1-.666.4A2.262,2.262,0,0,1,2.712.1ZM7.68-6.174a3.1,3.1,0,0,1,1.2.222,2.572,2.572,0,0,1,.912.63,2.765,2.765,0,0,1,.579.987,3.924,3.924,0,0,1,.2,1.293,3.917,3.917,0,0,1-.2,1.3,2.769,2.769,0,0,1-.579.984,2.539,2.539,0,0,1-.912.627,3.137,3.137,0,0,1-1.2.219A3.176,3.176,0,0,1,6.471-.135a2.533,2.533,0,0,1-.915-.627,2.769,2.769,0,0,1-.579-.984,3.917,3.917,0,0,1-.2-1.3,3.924,3.924,0,0,1,.2-1.293,2.765,2.765,0,0,1,.579-.987,2.566,2.566,0,0,1,.915-.63A3.138,3.138,0,0,1,7.68-6.174Zm0,5.424a1.56,1.56,0,0,0,1.344-.6,2.792,2.792,0,0,0,.444-1.683,2.818,2.818,0,0,0-.444-1.692A1.557,1.557,0,0,0,7.68-5.334a1.886,1.886,0,0,0-.8.156,1.477,1.477,0,0,0-.564.45,2,2,0,0,0-.336.723,3.876,3.876,0,0,0-.111.969,2.778,2.778,0,0,0,.447,1.683A1.582,1.582,0,0,0,7.68-.75ZM13-1.464a1.725,1.725,0,0,0,.642.558,1.826,1.826,0,0,0,.78.162,1.538,1.538,0,0,0,1.308-.606,2.83,2.83,0,0,0,.456-1.728,4.312,4.312,0,0,0-.1-1.02,2,2,0,0,0-.3-.7,1.179,1.179,0,0,0-.486-.4,1.616,1.616,0,0,0-.654-.126,1.72,1.72,0,0,0-.915.24A2.638,2.638,0,0,0,13-4.4Zm-.054-3.672A3.149,3.149,0,0,1,13.83-5.9a2.28,2.28,0,0,1,1.152-.288,2.208,2.208,0,0,1,.954.2,1.955,1.955,0,0,1,.726.594,2.849,2.849,0,0,1,.462.975,5,5,0,0,1,.162,1.338,4.194,4.194,0,0,1-.18,1.251,3.014,3.014,0,0,1-.519,1,2.439,2.439,0,0,1-.828.666,2.44,2.44,0,0,1-1.1.243A2.219,2.219,0,0,1,13.7-.105,2.249,2.249,0,0,1,13-.63V2.058H11.922V-6.078h.642a.264.264,0,0,1,.282.222ZM19.128.126a.6.6,0,0,1-.243.312.637.637,0,0,1-.339.1H18.1L21.7-8.442a.6.6,0,0,1,.219-.294.58.58,0,0,1,.339-.1h.456Zm5.91-1.59a1.717,1.717,0,0,0,.645.558,1.817,1.817,0,0,0,.771.162,1.545,1.545,0,0,0,1.314-.606,2.982,2.982,0,0,0,.456-1.806,2.687,2.687,0,0,0-.4-1.641,1.373,1.373,0,0,0-1.155-.525,1.689,1.689,0,0,0-.909.24,2.677,2.677,0,0,0-.717.678Zm0-3.738a3.125,3.125,0,0,1,.867-.708,2.283,2.283,0,0,1,1.113-.264,2.215,2.215,0,0,1,.963.2,2,2,0,0,1,.729.591,2.763,2.763,0,0,1,.459.939A4.486,4.486,0,0,1,29.328-3.2a4.71,4.71,0,0,1-.18,1.344,3.05,3.05,0,0,1-.519,1.035,2.355,2.355,0,0,1-.825.666,2.459,2.459,0,0,1-1.092.237A2.082,2.082,0,0,1,25.7-.141a2.211,2.211,0,0,1-.717-.639l-.054.552A.257.257,0,0,1,24.654,0h-.69V-8.838h1.074Zm8.208-.972a3.1,3.1,0,0,1,1.2.222,2.572,2.572,0,0,1,.912.63,2.765,2.765,0,0,1,.579.987,3.925,3.925,0,0,1,.2,1.293,3.917,3.917,0,0,1-.2,1.3,2.769,2.769,0,0,1-.579.984,2.539,2.539,0,0,1-.912.627,3.137,3.137,0,0,1-1.2.219,3.176,3.176,0,0,1-1.209-.219,2.533,2.533,0,0,1-.915-.627,2.769,2.769,0,0,1-.579-.984,3.917,3.917,0,0,1-.2-1.3,3.924,3.924,0,0,1,.2-1.293,2.765,2.765,0,0,1,.579-.987,2.566,2.566,0,0,1,.915-.63A3.138,3.138,0,0,1,33.246-6.174Zm0,5.424a1.56,1.56,0,0,0,1.344-.6,2.792,2.792,0,0,0,.444-1.683,2.818,2.818,0,0,0-.444-1.692,1.557,1.557,0,0,0-1.344-.606,1.886,1.886,0,0,0-.795.156,1.477,1.477,0,0,0-.564.45,2,2,0,0,0-.336.723,3.876,3.876,0,0,0-.111.969,2.778,2.778,0,0,0,.447,1.683A1.582,1.582,0,0,0,33.246-.75Zm6,.846a1.465,1.465,0,0,1-1.107-.4,1.6,1.6,0,0,1-.387-1.158v-3.72H37.02a.239.239,0,0,1-.162-.057.222.222,0,0,1-.066-.177v-.426l1-.126.246-1.878a.261.261,0,0,1,.081-.147.236.236,0,0,1,.165-.057h.54v2.094h2.862l.246-1.89a.261.261,0,0,1,.081-.147.236.236,0,0,1,.165-.057h.54v2.094h1.758v.774H42.714v3.648a.768.768,0,0,0,.189.57.652.652,0,0,0,.477.186.847.847,0,0,0,.291-.045,1.249,1.249,0,0,0,.213-.1q.09-.054.153-.1a.2.2,0,0,1,.111-.045.174.174,0,0,1,.15.1l.318.51a2.059,2.059,0,0,1-.672.4,2.262,2.262,0,0,1-.8.147,1.467,1.467,0,0,1-1.1-.4,1.6,1.6,0,0,1-.39-1.158v-3.72H38.82v3.648a.776.776,0,0,0,.186.57.65.65,0,0,0,.48.186.847.847,0,0,0,.291-.045,1.249,1.249,0,0,0,.213-.1q.09-.054.153-.1a.2.2,0,0,1,.111-.045.184.184,0,0,1,.15.1l.312.51a1.99,1.99,0,0,1-.666.4A2.262,2.262,0,0,1,39.246.1Zm8.862-6.27a3.1,3.1,0,0,1,1.2.222,2.572,2.572,0,0,1,.912.63,2.765,2.765,0,0,1,.579.987A3.925,3.925,0,0,1,51-3.042a3.917,3.917,0,0,1-.2,1.3,2.769,2.769,0,0,1-.579.984,2.539,2.539,0,0,1-.912.627,3.137,3.137,0,0,1-1.2.219A3.176,3.176,0,0,1,46.9-.135a2.533,2.533,0,0,1-.915-.627,2.769,2.769,0,0,1-.579-.984,3.917,3.917,0,0,1-.2-1.3,3.925,3.925,0,0,1,.2-1.293,2.765,2.765,0,0,1,.579-.987,2.566,2.566,0,0,1,.915-.63A3.138,3.138,0,0,1,48.108-6.174Zm0,5.424a1.56,1.56,0,0,0,1.344-.6A2.792,2.792,0,0,0,49.9-3.036a2.818,2.818,0,0,0-.444-1.692,1.557,1.557,0,0,0-1.344-.606,1.886,1.886,0,0,0-.8.156,1.477,1.477,0,0,0-.564.45,2,2,0,0,0-.336.723,3.875,3.875,0,0,0-.111.969,2.778,2.778,0,0,0,.447,1.683A1.582,1.582,0,0,0,48.108-.75ZM52.35,0V-6.078h.642a.264.264,0,0,1,.282.222l.078.624a3.094,3.094,0,0,1,.756-.678,1.788,1.788,0,0,1,.972-.264,1.43,1.43,0,0,1,.993.342,1.924,1.924,0,0,1,.549.924,2,2,0,0,1,.339-.57,1.934,1.934,0,0,1,.465-.4,1.969,1.969,0,0,1,.549-.228,2.452,2.452,0,0,1,.591-.072,2.248,2.248,0,0,1,.855.153,1.693,1.693,0,0,1,.636.447,1.991,1.991,0,0,1,.4.723,3.2,3.2,0,0,1,.138.981V0H59.52V-3.87a1.638,1.638,0,0,0-.312-1.083,1.113,1.113,0,0,0-.9-.369,1.359,1.359,0,0,0-.5.093,1.207,1.207,0,0,0-.417.273,1.28,1.28,0,0,0-.285.453A1.757,1.757,0,0,0,57-3.87V0H55.926V-3.87a1.7,1.7,0,0,0-.294-1.092,1.043,1.043,0,0,0-.858-.36,1.341,1.341,0,0,0-.732.213,2.429,2.429,0,0,0-.618.579V0Z" transform="translate(593 1016)" fill="#fff"/>
      <path id="margin-2" data-name="margin" d="M.846,0V-6.078h.642a.264.264,0,0,1,.282.222l.078.624A3.094,3.094,0,0,1,2.6-5.91a1.788,1.788,0,0,1,.972-.264,1.43,1.43,0,0,1,.993.342,1.924,1.924,0,0,1,.549.924,2,2,0,0,1,.339-.57,1.934,1.934,0,0,1,.465-.4A1.969,1.969,0,0,1,6.471-6.1a2.452,2.452,0,0,1,.591-.072,2.248,2.248,0,0,1,.855.153,1.693,1.693,0,0,1,.636.447,1.991,1.991,0,0,1,.4.723,3.2,3.2,0,0,1,.138.981V0H8.016V-3.87A1.638,1.638,0,0,0,7.7-4.953a1.113,1.113,0,0,0-.9-.369,1.359,1.359,0,0,0-.5.093,1.207,1.207,0,0,0-.417.273A1.28,1.28,0,0,0,5.6-4.5a1.757,1.757,0,0,0-.1.633V0H4.422V-3.87a1.7,1.7,0,0,0-.294-1.092,1.043,1.043,0,0,0-.858-.36,1.341,1.341,0,0,0-.732.213,2.429,2.429,0,0,0-.618.579V0ZM14.01-2.736a8.9,8.9,0,0,0-1.257.117,3.575,3.575,0,0,0-.846.243,1.168,1.168,0,0,0-.474.354.762.762,0,0,0-.147.456,1.006,1.006,0,0,0,.078.414.769.769,0,0,0,.213.285A.855.855,0,0,0,11.9-.7a1.459,1.459,0,0,0,.393.051A2.18,2.18,0,0,0,12.8-.711a1.944,1.944,0,0,0,.441-.165,2.487,2.487,0,0,0,.4-.258,3.431,3.431,0,0,0,.369-.342ZM10.56-5.22a3.471,3.471,0,0,1,1.086-.726,3.353,3.353,0,0,1,1.29-.24,2.3,2.3,0,0,1,.906.168,1.858,1.858,0,0,1,.666.468,1.982,1.982,0,0,1,.408.726,3.024,3.024,0,0,1,.138.936V0H14.58a.466.466,0,0,1-.24-.051.347.347,0,0,1-.132-.2l-.12-.576a5.956,5.956,0,0,1-.468.393,2.678,2.678,0,0,1-.48.288,2.607,2.607,0,0,1-.537.18A2.938,2.938,0,0,1,11.97.1,2.19,2.19,0,0,1,11.3,0a1.539,1.539,0,0,1-.543-.3,1.4,1.4,0,0,1-.366-.5,1.751,1.751,0,0,1-.135-.717,1.337,1.337,0,0,1,.2-.693A1.735,1.735,0,0,1,11.1-2.8a4.211,4.211,0,0,1,1.158-.423,8.83,8.83,0,0,1,1.752-.189v-.474A1.625,1.625,0,0,0,13.7-4.959a1.1,1.1,0,0,0-.894-.363,1.922,1.922,0,0,0-.663.1A2.487,2.487,0,0,0,11.685-5q-.2.123-.336.222a.485.485,0,0,1-.279.1.307.307,0,0,1-.186-.057.523.523,0,0,1-.132-.141Zm7.134.36a2.741,2.741,0,0,1,.708-.975,1.547,1.547,0,0,1,1.026-.351,1.593,1.593,0,0,1,.369.042.99.99,0,0,1,.315.132l-.078.8a.172.172,0,0,1-.18.15,1.239,1.239,0,0,1-.246-.036,1.694,1.694,0,0,0-.366-.036,1.46,1.46,0,0,0-.513.084,1.2,1.2,0,0,0-.4.249,1.76,1.76,0,0,0-.318.408,3.5,3.5,0,0,0-.255.555V0H16.68V-6.078h.612a.338.338,0,0,1,.24.066.4.4,0,0,1,.09.228Zm5.334,1.89a1.655,1.655,0,0,0,.57-.09,1.163,1.163,0,0,0,.414-.252,1.031,1.031,0,0,0,.252-.387,1.405,1.405,0,0,0,.084-.5,1.182,1.182,0,0,0-.339-.888,1.35,1.35,0,0,0-.981-.33,1.359,1.359,0,0,0-.987.33,1.182,1.182,0,0,0-.339.888,1.362,1.362,0,0,0,.087.5,1.063,1.063,0,0,0,.255.387,1.163,1.163,0,0,0,.414.252A1.655,1.655,0,0,0,23.028-2.97ZM24.954.33a.513.513,0,0,0-.126-.36.84.84,0,0,0-.339-.216,2.181,2.181,0,0,0-.495-.111q-.282-.033-.6-.051l-.639-.036q-.324-.018-.624-.06a1.673,1.673,0,0,0-.549.393.8.8,0,0,0-.213.555.734.734,0,0,0,.1.381.9.9,0,0,0,.321.306,1.879,1.879,0,0,0,.543.2,3.483,3.483,0,0,0,.771.075,3.494,3.494,0,0,0,.774-.078,1.943,1.943,0,0,0,.579-.222,1.09,1.09,0,0,0,.363-.342A.8.8,0,0,0,24.954.33ZM26.04-5.838v.4q0,.2-.252.252l-.69.09a1.884,1.884,0,0,1,.2.876,1.87,1.87,0,0,1-.171.807,1.848,1.848,0,0,1-.471.621,2.09,2.09,0,0,1-.72.4,2.906,2.906,0,0,1-.912.138,3.075,3.075,0,0,1-.8-.1,1.08,1.08,0,0,0-.294.255.45.45,0,0,0-.1.273A.362.362,0,0,0,22-1.509a1.267,1.267,0,0,0,.465.159,5.024,5.024,0,0,0,.657.06q.369.012.756.039a7.1,7.1,0,0,1,.756.093,2.286,2.286,0,0,1,.657.216,1.239,1.239,0,0,1,.465.414,1.206,1.206,0,0,1,.177.684,1.588,1.588,0,0,1-.195.756,2.045,2.045,0,0,1-.561.651,2.886,2.886,0,0,1-.9.456,3.9,3.9,0,0,1-1.2.171,4.571,4.571,0,0,1-1.164-.132A2.732,2.732,0,0,1,21.1,1.7a1.542,1.542,0,0,1-.495-.513,1.217,1.217,0,0,1-.165-.609,1.1,1.1,0,0,1,.282-.762,1.95,1.95,0,0,1,.774-.5A1.108,1.108,0,0,1,21.063-1a.852.852,0,0,1-.159-.543.845.845,0,0,1,.048-.273A1.122,1.122,0,0,1,21.1-2.1a1.507,1.507,0,0,1,.243-.267,1.58,1.58,0,0,1,.336-.222,1.868,1.868,0,0,1-.7-.669,1.837,1.837,0,0,1-.252-.969,1.87,1.87,0,0,1,.171-.807,1.784,1.784,0,0,1,.477-.618,2.182,2.182,0,0,1,.729-.393,2.975,2.975,0,0,1,.927-.138,2.987,2.987,0,0,1,.738.087,2.337,2.337,0,0,1,.624.255Zm2.238-.24V0H27.21V-6.078Zm.228-1.908a.68.68,0,0,1-.063.291.838.838,0,0,1-.168.24.771.771,0,0,1-.246.165.751.751,0,0,1-.3.06.708.708,0,0,1-.291-.06.754.754,0,0,1-.237-.165.819.819,0,0,1-.162-.24.708.708,0,0,1-.06-.291.751.751,0,0,1,.06-.3.8.8,0,0,1,.162-.246.754.754,0,0,1,.237-.165.708.708,0,0,1,.291-.06.751.751,0,0,1,.3.06.771.771,0,0,1,.246.165.814.814,0,0,1,.168.246A.72.72,0,0,1,28.506-7.986ZM31.038-5.2a3.606,3.606,0,0,1,.42-.4,2.769,2.769,0,0,1,.471-.309,2.391,2.391,0,0,1,.528-.2,2.507,2.507,0,0,1,.6-.069,2.195,2.195,0,0,1,.879.165,1.7,1.7,0,0,1,.636.468,2.067,2.067,0,0,1,.387.729,3.172,3.172,0,0,1,.132.942V0H34.02V-3.87a1.636,1.636,0,0,0-.315-1.071,1.17,1.17,0,0,0-.957-.381,1.8,1.8,0,0,0-.885.228,2.915,2.915,0,0,0-.759.618V0H30.03V-6.078h.642a.264.264,0,0,1,.282.222Z" transform="translate(593 1004)" fill="#fff"/>
      <line id="Line_163" data-name="Line 163" x2="6.003" transform="translate(620.902 948.001) rotate(-30)" fill="none" stroke="#566b79" stroke-width="1"/>
      <g id="Group_181" data-name="Group 181">
        <line id="Line_162" data-name="Line 162" x2="6.003" transform="translate(620.902 945.001) rotate(-30)" fill="none" stroke="#dc3545" stroke-width="1"/>
        <line id="Line_164" data-name="Line 164" x2="6.003" transform="translate(620.902 948.001) rotate(-30)" fill="none" stroke="#dc3545" stroke-width="1"/>
        <line id="Line_165" data-name="Line 165" x2="6.003" transform="translate(620.902 951.001) rotate(-30)" fill="none" stroke="#dc3545" stroke-width="1"/>
        <line id="Line_166" data-name="Line 166" x2="6.003" transform="translate(620.902 954.001) rotate(-30)" fill="none" stroke="#dc3545" stroke-width="1"/>
        <line id="Line_167" data-name="Line 167" x2="6.003" transform="translate(620.902 957.001) rotate(-30)" fill="none" stroke="#dc3545" stroke-width="1"/>
        <line id="Line_168" data-name="Line 168" x2="6.003" transform="translate(620.902 960.001) rotate(-30)" fill="none" stroke="#dc3545" stroke-width="1"/>
        <line id="Line_169" data-name="Line 169" x2="6.003" transform="translate(620.902 963.001) rotate(-30)" fill="none" stroke="#dc3545" stroke-width="1"/>
        <line id="Line_170" data-name="Line 170" x2="6.003" transform="translate(620.902 966.001) rotate(-30)" fill="none" stroke="#dc3545" stroke-width="1"/>
        <line id="Line_171" data-name="Line 171" x2="6.003" transform="translate(620.902 969.001) rotate(-30)" fill="none" stroke="#dc3545" stroke-width="1"/>
        <line id="Line_172" data-name="Line 172" x2="6.003" transform="translate(620.902 972.001) rotate(-30)" fill="none" stroke="#dc3545" stroke-width="1"/>
      </g>
    </g>
    <g id="Group_63" data-name="Group 63" transform="translate(571 126)">
      <path id="Path_146" data-name="Path 146" d="M0,0H36V36H0Z" fill="#fff"/>
      <g id="iconfinder_201-LinkedIn_192159" transform="translate(6 6.7)">
        <path id="Path_19" data-name="Path 19" d="M18.312,53.735V44.648a2.693,2.693,0,0,0-2.621-2.431,2.856,2.856,0,0,0-2.78,2.311v9.207H8.066l.079-15.011h4.686l-.038,1.887s.977-2.466,4.658-2.466,5.347,2.115,5.657,6.07v9.52ZM2.125,36.592A2.856,2.856,0,0,1-.891,33.93a2.858,2.858,0,0,1,3.016-2.665A2.858,2.858,0,0,1,5.141,33.93,2.856,2.856,0,0,1,2.125,36.592Zm2.99,17.161H-.841V38.762l5.956-.038Z" transform="translate(0.891 -31.265)" fill="#141823"/>
      </g>
      <path id="Line_11-3" data-name="Line 11" d="M24,0H0" transform="translate(6 33)" fill="none" stroke="#30ba78" stroke-width="1"/>
      <path id="_24px-3" data-name="24px" d="M5.922-1.014a.373.373,0,0,1,.276.1.357.357,0,0,1,.1.264V0H.564V-.366A.628.628,0,0,1,.612-.6a.661.661,0,0,1,.15-.222L3.516-3.588q.342-.348.624-.669A4.677,4.677,0,0,0,4.62-4.9a3.085,3.085,0,0,0,.306-.657,2.291,2.291,0,0,0,.108-.711,1.7,1.7,0,0,0-.12-.663A1.3,1.3,0,0,0,4.587-7.4,1.358,1.358,0,0,0,4.1-7.683a1.923,1.923,0,0,0-.606-.093,1.834,1.834,0,0,0-.606.1,1.628,1.628,0,0,0-.489.267,1.572,1.572,0,0,0-.357.405,1.619,1.619,0,0,0-.2.516.481.481,0,0,1-.195.279.556.556,0,0,1-.345.039l-.558-.1a3.118,3.118,0,0,1,.327-1.041,2.52,2.52,0,0,1,.612-.759,2.6,2.6,0,0,1,.843-.465,3.207,3.207,0,0,1,1.026-.159,3.134,3.134,0,0,1,1.02.162,2.383,2.383,0,0,1,.822.471,2.18,2.18,0,0,1,.546.753,2.45,2.45,0,0,1,.2,1.008,2.677,2.677,0,0,1-.144.891,3.534,3.534,0,0,1-.39.783,6.052,6.052,0,0,1-.567.726q-.321.354-.681.714L2.082-.87a4.473,4.473,0,0,1,.486-.1,3.028,3.028,0,0,1,.474-.039ZM11.34-3.1V-6.648q0-.156.012-.342t.036-.378L8.256-3.1Zm2.238,0v.612a.239.239,0,0,1-.057.162.222.222,0,0,1-.177.066H12.276V0H11.34V-2.262H7.524a.323.323,0,0,1-.207-.069A.3.3,0,0,1,7.206-2.5L7.1-3.048,11.28-8.6h1v5.5ZM15.84-1.464a1.725,1.725,0,0,0,.642.558,1.826,1.826,0,0,0,.78.162A1.538,1.538,0,0,0,18.57-1.35a2.83,2.83,0,0,0,.456-1.728,4.312,4.312,0,0,0-.1-1.02,2,2,0,0,0-.3-.7,1.179,1.179,0,0,0-.486-.4,1.616,1.616,0,0,0-.654-.126,1.72,1.72,0,0,0-.915.24,2.638,2.638,0,0,0-.723.678Zm-.054-3.672a3.149,3.149,0,0,1,.888-.762,2.28,2.28,0,0,1,1.152-.288,2.208,2.208,0,0,1,.954.2,1.955,1.955,0,0,1,.726.594,2.849,2.849,0,0,1,.462.975,5,5,0,0,1,.162,1.338,4.194,4.194,0,0,1-.18,1.251,3.014,3.014,0,0,1-.519,1,2.439,2.439,0,0,1-.828.666,2.44,2.44,0,0,1-1.1.243,2.219,2.219,0,0,1-.957-.189,2.249,2.249,0,0,1-.7-.525V2.058H14.766V-6.078h.642a.264.264,0,0,1,.282.222ZM26.244,0H25.218a.294.294,0,0,1-.207-.069.637.637,0,0,1-.123-.153L23.358-2.6q-.024.084-.051.165a.537.537,0,0,1-.075.147L21.816-.222a1.212,1.212,0,0,1-.129.153A.255.255,0,0,1,21.5,0h-.954l2.13-3.12L20.628-6.078h1.026a.341.341,0,0,1,.192.042.4.4,0,0,1,.108.12l1.494,2.28a1.256,1.256,0,0,1,.15-.336l1.308-1.92a.564.564,0,0,1,.117-.135.235.235,0,0,1,.153-.051h.984l-2.046,2.9Z" transform="translate(0 54)" fill="#fff"/>
      <path id="logo-4" data-name="logo" d="M1.95-8.838V0H.882V-8.838ZM6.24-6.174a3.1,3.1,0,0,1,1.2.222,2.572,2.572,0,0,1,.912.63,2.765,2.765,0,0,1,.579.987,3.924,3.924,0,0,1,.2,1.293,3.917,3.917,0,0,1-.2,1.3,2.769,2.769,0,0,1-.579.984,2.539,2.539,0,0,1-.912.627,3.137,3.137,0,0,1-1.2.219A3.176,3.176,0,0,1,5.031-.135a2.533,2.533,0,0,1-.915-.627,2.769,2.769,0,0,1-.579-.984,3.917,3.917,0,0,1-.2-1.3,3.924,3.924,0,0,1,.2-1.293,2.765,2.765,0,0,1,.579-.987,2.566,2.566,0,0,1,.915-.63A3.138,3.138,0,0,1,6.24-6.174Zm0,5.424a1.56,1.56,0,0,0,1.344-.6,2.792,2.792,0,0,0,.444-1.683,2.818,2.818,0,0,0-.444-1.692A1.557,1.557,0,0,0,6.24-5.334a1.886,1.886,0,0,0-.8.156,1.477,1.477,0,0,0-.564.45,2,2,0,0,0-.336.723,3.876,3.876,0,0,0-.111.969,2.778,2.778,0,0,0,.447,1.683A1.582,1.582,0,0,0,6.24-.75Zm6.33-2.22a1.655,1.655,0,0,0,.57-.09,1.163,1.163,0,0,0,.414-.252,1.031,1.031,0,0,0,.252-.387,1.405,1.405,0,0,0,.084-.5,1.182,1.182,0,0,0-.339-.888,1.35,1.35,0,0,0-.981-.33,1.359,1.359,0,0,0-.987.33,1.182,1.182,0,0,0-.339.888,1.362,1.362,0,0,0,.087.5,1.063,1.063,0,0,0,.255.387A1.163,1.163,0,0,0,12-3.06,1.655,1.655,0,0,0,12.57-2.97ZM14.5.33a.513.513,0,0,0-.126-.36.84.84,0,0,0-.339-.216,2.181,2.181,0,0,0-.5-.111q-.282-.033-.6-.051L12.3-.444q-.324-.018-.624-.06a1.673,1.673,0,0,0-.549.393.8.8,0,0,0-.213.555.734.734,0,0,0,.105.381.9.9,0,0,0,.321.306,1.879,1.879,0,0,0,.543.2,3.483,3.483,0,0,0,.771.075,3.494,3.494,0,0,0,.774-.078,1.943,1.943,0,0,0,.579-.222A1.09,1.09,0,0,0,14.37.768.8.8,0,0,0,14.5.33Zm1.086-6.168v.4q0,.2-.252.252l-.69.09a1.884,1.884,0,0,1,.2.876,1.87,1.87,0,0,1-.171.807A1.848,1.848,0,0,1,14.2-2.8a2.09,2.09,0,0,1-.72.4,2.906,2.906,0,0,1-.912.138,3.075,3.075,0,0,1-.8-.1,1.08,1.08,0,0,0-.294.255.45.45,0,0,0-.1.273.362.362,0,0,0,.177.327,1.267,1.267,0,0,0,.465.159,5.024,5.024,0,0,0,.657.06q.369.012.756.039a7.1,7.1,0,0,1,.756.093,2.286,2.286,0,0,1,.657.216,1.239,1.239,0,0,1,.465.414,1.206,1.206,0,0,1,.177.684,1.588,1.588,0,0,1-.195.756,2.045,2.045,0,0,1-.561.651,2.886,2.886,0,0,1-.9.456,3.9,3.9,0,0,1-1.2.171,4.571,4.571,0,0,1-1.164-.132,2.732,2.732,0,0,1-.828-.354,1.542,1.542,0,0,1-.5-.513A1.217,1.217,0,0,1,9.978.582,1.1,1.1,0,0,1,10.26-.18a1.95,1.95,0,0,1,.774-.5A1.108,1.108,0,0,1,10.6-1a.852.852,0,0,1-.159-.543.845.845,0,0,1,.048-.273,1.122,1.122,0,0,1,.147-.282,1.507,1.507,0,0,1,.243-.267,1.58,1.58,0,0,1,.336-.222,1.868,1.868,0,0,1-.7-.669,1.837,1.837,0,0,1-.252-.969,1.87,1.87,0,0,1,.171-.807,1.784,1.784,0,0,1,.477-.618,2.182,2.182,0,0,1,.729-.393,2.975,2.975,0,0,1,.927-.138,2.987,2.987,0,0,1,.738.087,2.337,2.337,0,0,1,.624.255Zm3.576-.336a3.1,3.1,0,0,1,1.2.222,2.572,2.572,0,0,1,.912.63,2.765,2.765,0,0,1,.579.987,3.924,3.924,0,0,1,.2,1.293,3.917,3.917,0,0,1-.2,1.3,2.77,2.77,0,0,1-.579.984,2.539,2.539,0,0,1-.912.627,3.137,3.137,0,0,1-1.2.219,3.176,3.176,0,0,1-1.209-.219,2.533,2.533,0,0,1-.915-.627,2.769,2.769,0,0,1-.579-.984,3.917,3.917,0,0,1-.2-1.3,3.924,3.924,0,0,1,.2-1.293,2.765,2.765,0,0,1,.579-.987,2.566,2.566,0,0,1,.915-.63A3.138,3.138,0,0,1,19.158-6.174Zm0,5.424a1.56,1.56,0,0,0,1.344-.6,2.792,2.792,0,0,0,.444-1.683A2.818,2.818,0,0,0,20.5-4.728a1.557,1.557,0,0,0-1.344-.606,1.886,1.886,0,0,0-.8.156,1.477,1.477,0,0,0-.564.45,2,2,0,0,0-.336.723,3.876,3.876,0,0,0-.111.969A2.778,2.778,0,0,0,17.8-1.353,1.582,1.582,0,0,0,19.158-.75Z" transform="translate(0 65)" fill="#fff"/>
      <path id="logo-5" data-name="logo" d="M9.228-6.078,7.26,0H6.414Q6.258,0,6.2-.2L4.854-4.326a2.315,2.315,0,0,1-.078-.279q-.03-.141-.06-.279-.03.138-.06.279a2.636,2.636,0,0,1-.078.285L3.21-.2a.236.236,0,0,1-.24.2h-.8L.2-6.078h.84a.342.342,0,0,1,.213.066.324.324,0,0,1,.117.156L2.532-1.944q.1.432.162.816.054-.2.111-.4t.123-.414L4.212-5.88a.317.317,0,0,1,.105-.15A.284.284,0,0,1,4.5-6.09h.468a.315.315,0,0,1,.2.06.309.309,0,0,1,.108.15L6.528-1.944q.066.21.12.414t.1.4q.03-.2.075-.4t.1-.417L8.112-5.856a.311.311,0,0,1,.114-.159.321.321,0,0,1,.2-.063Zm2.172,0V0H10.332V-6.078Zm.228-1.908a.68.68,0,0,1-.063.291.838.838,0,0,1-.168.24.771.771,0,0,1-.246.165.751.751,0,0,1-.3.06.708.708,0,0,1-.291-.06.754.754,0,0,1-.237-.165.819.819,0,0,1-.162-.24.708.708,0,0,1-.06-.291.751.751,0,0,1,.06-.3.8.8,0,0,1,.162-.246.754.754,0,0,1,.237-.165.708.708,0,0,1,.291-.06.751.751,0,0,1,.3.06.771.771,0,0,1,.246.165.814.814,0,0,1,.168.246A.72.72,0,0,1,11.628-7.986Zm5.484,3.354a1.726,1.726,0,0,0-.648-.561,1.856,1.856,0,0,0-.78-.159,1.532,1.532,0,0,0-1.3.606,2.83,2.83,0,0,0-.456,1.728A4.394,4.394,0,0,0,14.028-2a1.957,1.957,0,0,0,.3.7,1.179,1.179,0,0,0,.486.4,1.616,1.616,0,0,0,.654.126,1.732,1.732,0,0,0,.921-.24,2.638,2.638,0,0,0,.723-.678ZM18.18-8.838V0h-.636a.272.272,0,0,1-.288-.222l-.1-.738a3.309,3.309,0,0,1-.888.756A2.26,2.26,0,0,1,15.12.084a2.194,2.194,0,0,1-.948-.2,1.966,1.966,0,0,1-.726-.591,2.815,2.815,0,0,1-.462-.972,5,5,0,0,1-.162-1.338A4.194,4.194,0,0,1,13-4.269a3.082,3.082,0,0,1,.516-1.005,2.4,2.4,0,0,1,.825-.669,2.44,2.44,0,0,1,1.1-.243A2.219,2.219,0,0,1,16.4-6a2.319,2.319,0,0,1,.711.525V-8.838ZM21.738.1a1.465,1.465,0,0,1-1.107-.4,1.6,1.6,0,0,1-.387-1.158v-3.72h-.732a.239.239,0,0,1-.162-.057.222.222,0,0,1-.066-.177v-.426l1-.126.246-1.878a.261.261,0,0,1,.081-.147.236.236,0,0,1,.165-.057h.54v2.094H23.07v.774H21.312v3.648a.776.776,0,0,0,.186.57.65.65,0,0,0,.48.186.847.847,0,0,0,.291-.045,1.249,1.249,0,0,0,.213-.1q.09-.054.153-.1a.2.2,0,0,1,.111-.045.184.184,0,0,1,.15.1l.312.51a1.99,1.99,0,0,1-.666.4A2.262,2.262,0,0,1,21.738.1Zm3.51-5.364a3.226,3.226,0,0,1,.864-.66A2.337,2.337,0,0,1,27.2-6.174a2.195,2.195,0,0,1,.879.165,1.7,1.7,0,0,1,.636.468,2.067,2.067,0,0,1,.387.729,3.172,3.172,0,0,1,.132.942V0H28.164V-3.87a1.636,1.636,0,0,0-.315-1.071,1.17,1.17,0,0,0-.957-.381,1.8,1.8,0,0,0-.885.228,2.915,2.915,0,0,0-.759.618V0H24.174V-8.838h1.074Z" transform="translate(0 77)" fill="#fff"/>
      <path id="Line_12-2" data-name="Line 12" d="M4,0H0" transform="translate(31 22)" fill="none" stroke="#30ba78" stroke-width="1"/>
      <path id="_36px-2" data-name="36px" d="M3.468-.792A2.124,2.124,0,0,0,4.251-.93a1.756,1.756,0,0,0,.6-.384A1.7,1.7,0,0,0,5.235-1.9a1.946,1.946,0,0,0,.135-.732,2.077,2.077,0,0,0-.132-.759,1.607,1.607,0,0,0-.375-.576,1.645,1.645,0,0,0-.579-.363,2.086,2.086,0,0,0-.738-.126,1.986,1.986,0,0,0-.78.147,1.784,1.784,0,0,0-.591.4,1.72,1.72,0,0,0-.372.576,1.839,1.839,0,0,0-.129.681,2.271,2.271,0,0,0,.12.756,1.64,1.64,0,0,0,.351.588,1.572,1.572,0,0,0,.564.381A2.007,2.007,0,0,0,3.468-.792ZM2.844-5.376,2.625-5.1q-.1.135-.2.267A2.487,2.487,0,0,1,3.1-5.154a2.672,2.672,0,0,1,.8-.114,2.812,2.812,0,0,1,.984.171,2.339,2.339,0,0,1,.807.5,2.381,2.381,0,0,1,.549.8,2.747,2.747,0,0,1,.2,1.089,2.8,2.8,0,0,1-.216,1.1,2.7,2.7,0,0,1-.6.888,2.788,2.788,0,0,1-.93.594A3.211,3.211,0,0,1,3.492.1,3.2,3.2,0,0,1,2.316-.111a2.5,2.5,0,0,1-.9-.588,2.612,2.612,0,0,1-.57-.924,3.479,3.479,0,0,1-.2-1.215A3.321,3.321,0,0,1,.9-4.041a5.859,5.859,0,0,1,.8-1.365L3.876-8.34a.675.675,0,0,1,.231-.183A.736.736,0,0,1,4.446-8.6h.948ZM8.88-1.464a1.725,1.725,0,0,0,.642.558,1.826,1.826,0,0,0,.78.162A1.538,1.538,0,0,0,11.61-1.35a2.83,2.83,0,0,0,.456-1.728,4.312,4.312,0,0,0-.1-1.02,2,2,0,0,0-.3-.7,1.179,1.179,0,0,0-.486-.4,1.616,1.616,0,0,0-.654-.126,1.72,1.72,0,0,0-.915.24A2.638,2.638,0,0,0,8.88-4.4ZM8.826-5.136A3.149,3.149,0,0,1,9.714-5.9a2.28,2.28,0,0,1,1.152-.288,2.208,2.208,0,0,1,.954.2,1.955,1.955,0,0,1,.726.594,2.849,2.849,0,0,1,.462.975,5,5,0,0,1,.162,1.338,4.194,4.194,0,0,1-.18,1.251,3.014,3.014,0,0,1-.519,1,2.439,2.439,0,0,1-.828.666,2.44,2.44,0,0,1-1.1.243,2.219,2.219,0,0,1-.957-.189,2.249,2.249,0,0,1-.7-.525V2.058H7.806V-6.078h.642a.264.264,0,0,1,.282.222ZM19.284,0H18.258a.294.294,0,0,1-.207-.069.637.637,0,0,1-.123-.153L16.4-2.6q-.024.084-.051.165a.537.537,0,0,1-.075.147L14.856-.222a1.212,1.212,0,0,1-.129.153A.255.255,0,0,1,14.538,0h-.954l2.13-3.12L13.668-6.078h1.026a.341.341,0,0,1,.192.042.4.4,0,0,1,.108.12l1.494,2.28a1.255,1.255,0,0,1,.15-.336l1.308-1.92a.564.564,0,0,1,.117-.135.235.235,0,0,1,.153-.051H19.2l-2.046,2.9Z" transform="translate(42 12)" fill="#fff"/>
      <path id="wrapper-2" data-name="wrapper" d="M.846,0V-6.078h.642a.264.264,0,0,1,.282.222l.078.624A3.094,3.094,0,0,1,2.6-5.91a1.788,1.788,0,0,1,.972-.264,1.43,1.43,0,0,1,.993.342,1.924,1.924,0,0,1,.549.924,2,2,0,0,1,.339-.57,1.934,1.934,0,0,1,.465-.4A1.969,1.969,0,0,1,6.471-6.1a2.452,2.452,0,0,1,.591-.072,2.248,2.248,0,0,1,.855.153,1.693,1.693,0,0,1,.636.447,1.991,1.991,0,0,1,.4.723,3.2,3.2,0,0,1,.138.981V0H8.016V-3.87A1.638,1.638,0,0,0,7.7-4.953a1.113,1.113,0,0,0-.9-.369,1.359,1.359,0,0,0-.5.093,1.207,1.207,0,0,0-.417.273A1.28,1.28,0,0,0,5.6-4.5a1.757,1.757,0,0,0-.1.633V0H4.422V-3.87a1.7,1.7,0,0,0-.294-1.092,1.043,1.043,0,0,0-.858-.36,1.341,1.341,0,0,0-.732.213,2.429,2.429,0,0,0-.618.579V0ZM14.01-2.736a8.9,8.9,0,0,0-1.257.117,3.575,3.575,0,0,0-.846.243,1.168,1.168,0,0,0-.474.354.762.762,0,0,0-.147.456,1.006,1.006,0,0,0,.078.414.769.769,0,0,0,.213.285A.855.855,0,0,0,11.9-.7a1.459,1.459,0,0,0,.393.051A2.18,2.18,0,0,0,12.8-.711a1.944,1.944,0,0,0,.441-.165,2.487,2.487,0,0,0,.4-.258,3.431,3.431,0,0,0,.369-.342ZM10.56-5.22a3.471,3.471,0,0,1,1.086-.726,3.353,3.353,0,0,1,1.29-.24,2.3,2.3,0,0,1,.906.168,1.858,1.858,0,0,1,.666.468,1.982,1.982,0,0,1,.408.726,3.024,3.024,0,0,1,.138.936V0H14.58a.466.466,0,0,1-.24-.051.347.347,0,0,1-.132-.2l-.12-.576a5.956,5.956,0,0,1-.468.393,2.678,2.678,0,0,1-.48.288,2.607,2.607,0,0,1-.537.18A2.938,2.938,0,0,1,11.97.1,2.19,2.19,0,0,1,11.3,0a1.539,1.539,0,0,1-.543-.3,1.4,1.4,0,0,1-.366-.5,1.751,1.751,0,0,1-.135-.717,1.337,1.337,0,0,1,.2-.693A1.735,1.735,0,0,1,11.1-2.8a4.211,4.211,0,0,1,1.158-.423,8.83,8.83,0,0,1,1.752-.189v-.474A1.625,1.625,0,0,0,13.7-4.959a1.1,1.1,0,0,0-.894-.363,1.922,1.922,0,0,0-.663.1A2.487,2.487,0,0,0,11.685-5q-.2.123-.336.222a.485.485,0,0,1-.279.1.307.307,0,0,1-.186-.057.523.523,0,0,1-.132-.141Zm7.134.36a2.741,2.741,0,0,1,.708-.975,1.547,1.547,0,0,1,1.026-.351,1.593,1.593,0,0,1,.369.042.99.99,0,0,1,.315.132l-.078.8a.172.172,0,0,1-.18.15,1.239,1.239,0,0,1-.246-.036,1.694,1.694,0,0,0-.366-.036,1.46,1.46,0,0,0-.513.084,1.2,1.2,0,0,0-.4.249,1.76,1.76,0,0,0-.318.408,3.5,3.5,0,0,0-.255.555V0H16.68V-6.078h.612a.338.338,0,0,1,.24.066.4.4,0,0,1,.09.228Zm5.334,1.89a1.655,1.655,0,0,0,.57-.09,1.163,1.163,0,0,0,.414-.252,1.031,1.031,0,0,0,.252-.387,1.405,1.405,0,0,0,.084-.5,1.182,1.182,0,0,0-.339-.888,1.35,1.35,0,0,0-.981-.33,1.359,1.359,0,0,0-.987.33,1.182,1.182,0,0,0-.339.888,1.362,1.362,0,0,0,.087.5,1.063,1.063,0,0,0,.255.387,1.163,1.163,0,0,0,.414.252A1.655,1.655,0,0,0,23.028-2.97ZM24.954.33a.513.513,0,0,0-.126-.36.84.84,0,0,0-.339-.216,2.181,2.181,0,0,0-.495-.111q-.282-.033-.6-.051l-.639-.036q-.324-.018-.624-.06a1.673,1.673,0,0,0-.549.393.8.8,0,0,0-.213.555.734.734,0,0,0,.1.381.9.9,0,0,0,.321.306,1.879,1.879,0,0,0,.543.2,3.483,3.483,0,0,0,.771.075,3.494,3.494,0,0,0,.774-.078,1.943,1.943,0,0,0,.579-.222,1.09,1.09,0,0,0,.363-.342A.8.8,0,0,0,24.954.33ZM26.04-5.838v.4q0,.2-.252.252l-.69.09a1.884,1.884,0,0,1,.2.876,1.87,1.87,0,0,1-.171.807,1.848,1.848,0,0,1-.471.621,2.09,2.09,0,0,1-.72.4,2.906,2.906,0,0,1-.912.138,3.075,3.075,0,0,1-.8-.1,1.08,1.08,0,0,0-.294.255.45.45,0,0,0-.1.273A.362.362,0,0,0,22-1.509a1.267,1.267,0,0,0,.465.159,5.024,5.024,0,0,0,.657.06q.369.012.756.039a7.1,7.1,0,0,1,.756.093,2.286,2.286,0,0,1,.657.216,1.239,1.239,0,0,1,.465.414,1.206,1.206,0,0,1,.177.684,1.588,1.588,0,0,1-.195.756,2.045,2.045,0,0,1-.561.651,2.886,2.886,0,0,1-.9.456,3.9,3.9,0,0,1-1.2.171,4.571,4.571,0,0,1-1.164-.132A2.732,2.732,0,0,1,21.1,1.7a1.542,1.542,0,0,1-.495-.513,1.217,1.217,0,0,1-.165-.609,1.1,1.1,0,0,1,.282-.762,1.95,1.95,0,0,1,.774-.5A1.108,1.108,0,0,1,21.063-1a.852.852,0,0,1-.159-.543.845.845,0,0,1,.048-.273A1.122,1.122,0,0,1,21.1-2.1a1.507,1.507,0,0,1,.243-.267,1.58,1.58,0,0,1,.336-.222,1.868,1.868,0,0,1-.7-.669,1.837,1.837,0,0,1-.252-.969,1.87,1.87,0,0,1,.171-.807,1.784,1.784,0,0,1,.477-.618,2.182,2.182,0,0,1,.729-.393,2.975,2.975,0,0,1,.927-.138,2.987,2.987,0,0,1,.738.087,2.337,2.337,0,0,1,.624.255Zm2.238-.24V0H27.21V-6.078Zm.228-1.908a.68.68,0,0,1-.063.291.838.838,0,0,1-.168.24.771.771,0,0,1-.246.165.751.751,0,0,1-.3.06.708.708,0,0,1-.291-.06.754.754,0,0,1-.237-.165.819.819,0,0,1-.162-.24.708.708,0,0,1-.06-.291.751.751,0,0,1,.06-.3.8.8,0,0,1,.162-.246.754.754,0,0,1,.237-.165.708.708,0,0,1,.291-.06.751.751,0,0,1,.3.06.771.771,0,0,1,.246.165.814.814,0,0,1,.168.246A.72.72,0,0,1,28.506-7.986ZM31.038-5.2a3.606,3.606,0,0,1,.42-.4,2.769,2.769,0,0,1,.471-.309,2.391,2.391,0,0,1,.528-.2,2.507,2.507,0,0,1,.6-.069,2.195,2.195,0,0,1,.879.165,1.7,1.7,0,0,1,.636.468,2.067,2.067,0,0,1,.387.729,3.172,3.172,0,0,1,.132.942V0H34.02V-3.87a1.636,1.636,0,0,0-.315-1.071,1.17,1.17,0,0,0-.957-.381,1.8,1.8,0,0,0-.885.228,2.915,2.915,0,0,0-.759.618V0H30.03V-6.078h.642a.264.264,0,0,1,.282.222Z" transform="translate(43 22)" fill="#fff"/>
      <path id="wrapper-3" data-name="wrapper" d="M1.95-8.838V0H.882V-8.838ZM7.746-3.7a2.106,2.106,0,0,0-.105-.681,1.529,1.529,0,0,0-.306-.534,1.365,1.365,0,0,0-.489-.348,1.651,1.651,0,0,0-.654-.123,1.642,1.642,0,0,0-1.215.447A2.094,2.094,0,0,0,4.422-3.7ZM8.61-.852a2.029,2.029,0,0,1-.474.417,2.951,2.951,0,0,1-.591.291,3.754,3.754,0,0,1-.651.171,3.976,3.976,0,0,1-.666.057A3.09,3.09,0,0,1,5.067-.129a2.548,2.548,0,0,1-.918-.624,2.863,2.863,0,0,1-.6-1.017A4.135,4.135,0,0,1,3.33-3.162a3.542,3.542,0,0,1,.2-1.188,2.8,2.8,0,0,1,.561-.957,2.583,2.583,0,0,1,.894-.636,2.935,2.935,0,0,1,1.188-.231,2.737,2.737,0,0,1,1.011.183,2.287,2.287,0,0,1,.8.528,2.419,2.419,0,0,1,.531.852,3.245,3.245,0,0,1,.192,1.155.7.7,0,0,1-.054.336.224.224,0,0,1-.2.084H4.386a3.554,3.554,0,0,0,.159,1,2.013,2.013,0,0,0,.393.711,1.587,1.587,0,0,0,.6.426,2.061,2.061,0,0,0,.78.141,2.288,2.288,0,0,0,.693-.093,3.3,3.3,0,0,0,.5-.2,3.822,3.822,0,0,0,.351-.2.465.465,0,0,1,.243-.093.235.235,0,0,1,.2.1Zm6.7-4.332v3.648a.776.776,0,0,0,.186.57.642.642,0,0,0,.474.186.867.867,0,0,0,.3-.045,1.249,1.249,0,0,0,.213-.1,1.78,1.78,0,0,0,.15-.1.187.187,0,0,1,.108-.045.145.145,0,0,1,.087.024.306.306,0,0,1,.069.078l.312.51a1.99,1.99,0,0,1-.666.4,2.278,2.278,0,0,1-.81.147,1.457,1.457,0,0,1-1.1-.4,1.6,1.6,0,0,1-.387-1.158v-3.72H11.424V0H10.35V-5.166l-.672-.078a.535.535,0,0,1-.207-.093A.218.218,0,0,1,9.39-5.52v-.438h.96v-.588a2.708,2.708,0,0,1,.147-.927,1.879,1.879,0,0,1,.42-.684,1.78,1.78,0,0,1,.657-.423,2.446,2.446,0,0,1,.864-.144,2.252,2.252,0,0,1,.75.12l-.024.534a.155.155,0,0,1-.159.156q-.147.012-.393.012a1.639,1.639,0,0,0-.5.072.947.947,0,0,0-.387.234,1.059,1.059,0,0,0-.249.426,2.113,2.113,0,0,0-.087.654v.558h2.886l.24-1.89a.3.3,0,0,1,.087-.147.236.236,0,0,1,.165-.057h.54v2.094h1.752v.774Zm3.45,5.31a.6.6,0,0,1-.243.312.637.637,0,0,1-.339.1h-.45L21.33-8.442a.6.6,0,0,1,.219-.294.58.58,0,0,1,.339-.1h.456ZM24.27-4.86a2.741,2.741,0,0,1,.708-.975A1.547,1.547,0,0,1,26-6.186a1.593,1.593,0,0,1,.369.042.99.99,0,0,1,.315.132l-.078.8a.172.172,0,0,1-.18.15,1.239,1.239,0,0,1-.246-.036,1.694,1.694,0,0,0-.366-.036,1.46,1.46,0,0,0-.513.084,1.2,1.2,0,0,0-.4.249,1.76,1.76,0,0,0-.318.408,3.5,3.5,0,0,0-.255.555V0H23.256V-6.078h.612a.338.338,0,0,1,.24.066.4.4,0,0,1,.09.228Zm4.482-1.218V0H27.684V-6.078Zm.228-1.908a.68.68,0,0,1-.063.291.838.838,0,0,1-.168.24.771.771,0,0,1-.246.165.751.751,0,0,1-.3.06.708.708,0,0,1-.291-.06.754.754,0,0,1-.237-.165.819.819,0,0,1-.162-.24.708.708,0,0,1-.06-.291.751.751,0,0,1,.06-.3.8.8,0,0,1,.162-.246.754.754,0,0,1,.237-.165.708.708,0,0,1,.291-.06.751.751,0,0,1,.3.06.771.771,0,0,1,.246.165.814.814,0,0,1,.168.246A.72.72,0,0,1,28.98-7.986ZM32.622-2.97a1.655,1.655,0,0,0,.57-.09,1.163,1.163,0,0,0,.414-.252,1.031,1.031,0,0,0,.252-.387,1.405,1.405,0,0,0,.084-.5,1.182,1.182,0,0,0-.339-.888,1.35,1.35,0,0,0-.981-.33,1.359,1.359,0,0,0-.987.33,1.182,1.182,0,0,0-.339.888,1.362,1.362,0,0,0,.087.5,1.063,1.063,0,0,0,.255.387,1.163,1.163,0,0,0,.414.252A1.655,1.655,0,0,0,32.622-2.97ZM34.548.33a.513.513,0,0,0-.126-.36.84.84,0,0,0-.339-.216,2.181,2.181,0,0,0-.495-.111q-.282-.033-.6-.051l-.639-.036q-.324-.018-.624-.06a1.673,1.673,0,0,0-.549.393.8.8,0,0,0-.213.555.734.734,0,0,0,.1.381.9.9,0,0,0,.321.306,1.879,1.879,0,0,0,.543.2,3.483,3.483,0,0,0,.771.075,3.494,3.494,0,0,0,.774-.078,1.943,1.943,0,0,0,.579-.222,1.09,1.09,0,0,0,.363-.342A.8.8,0,0,0,34.548.33Zm1.086-6.168v.4q0,.2-.252.252l-.69.09a1.884,1.884,0,0,1,.2.876,1.87,1.87,0,0,1-.171.807,1.848,1.848,0,0,1-.471.621,2.09,2.09,0,0,1-.72.4,2.906,2.906,0,0,1-.912.138,3.075,3.075,0,0,1-.8-.1,1.08,1.08,0,0,0-.294.255.45.45,0,0,0-.1.273.362.362,0,0,0,.177.327,1.267,1.267,0,0,0,.465.159,5.024,5.024,0,0,0,.657.06q.369.012.756.039a7.1,7.1,0,0,1,.756.093,2.286,2.286,0,0,1,.657.216,1.239,1.239,0,0,1,.465.414,1.206,1.206,0,0,1,.177.684,1.588,1.588,0,0,1-.195.756,2.045,2.045,0,0,1-.561.651,2.886,2.886,0,0,1-.9.456,3.9,3.9,0,0,1-1.2.171,4.571,4.571,0,0,1-1.164-.132A2.732,2.732,0,0,1,30.69,1.7a1.542,1.542,0,0,1-.495-.513A1.217,1.217,0,0,1,30.03.582a1.1,1.1,0,0,1,.282-.762,1.95,1.95,0,0,1,.774-.5A1.108,1.108,0,0,1,30.657-1a.852.852,0,0,1-.159-.543.845.845,0,0,1,.048-.273,1.122,1.122,0,0,1,.147-.282,1.507,1.507,0,0,1,.243-.267,1.58,1.58,0,0,1,.336-.222,1.868,1.868,0,0,1-.7-.669,1.837,1.837,0,0,1-.252-.969,1.87,1.87,0,0,1,.171-.807,1.784,1.784,0,0,1,.477-.618,2.182,2.182,0,0,1,.729-.393,2.975,2.975,0,0,1,.927-.138,2.987,2.987,0,0,1,.738.087,2.337,2.337,0,0,1,.624.255Zm2.184.57a3.226,3.226,0,0,1,.864-.66,2.337,2.337,0,0,1,1.092-.246,2.195,2.195,0,0,1,.879.165,1.7,1.7,0,0,1,.636.468,2.067,2.067,0,0,1,.387.729,3.172,3.172,0,0,1,.132.942V0H40.734V-3.87a1.636,1.636,0,0,0-.315-1.071,1.17,1.17,0,0,0-.957-.381,1.8,1.8,0,0,0-.885.228,2.915,2.915,0,0,0-.759.618V0H36.744V-8.838h1.074ZM45.222.1a1.465,1.465,0,0,1-1.107-.4,1.6,1.6,0,0,1-.387-1.158v-3.72H43a.239.239,0,0,1-.162-.057.222.222,0,0,1-.066-.177v-.426l1-.126.246-1.878a.261.261,0,0,1,.081-.147.236.236,0,0,1,.165-.057h.54v2.094h1.758v.774H44.8v3.648a.776.776,0,0,0,.186.57.65.65,0,0,0,.48.186.847.847,0,0,0,.291-.045,1.249,1.249,0,0,0,.213-.1q.09-.054.153-.1a.2.2,0,0,1,.111-.045.184.184,0,0,1,.15.1l.312.51a1.99,1.99,0,0,1-.666.4A2.262,2.262,0,0,1,45.222.1Z" transform="translate(43 33)" fill="#fff"/>
      <g id="Group_182" data-name="Group 182" transform="translate(3 5.511) rotate(-90)">
        <line id="Line_162-2" data-name="Line 162" x2="5.06" y2="0.544" transform="translate(0 27) rotate(30)" fill="none" stroke="#dc3545" stroke-width="1"/>
        <line id="Line_164-2" data-name="Line 164" x2="5.06" y2="0.544" transform="translate(0 24) rotate(30)" fill="none" stroke="#dc3545" stroke-width="1"/>
        <line id="Line_165-2" data-name="Line 165" x2="5.06" y2="0.544" transform="translate(0 21) rotate(30)" fill="none" stroke="#dc3545" stroke-width="1"/>
        <line id="Line_166-2" data-name="Line 166" x2="5.06" y2="0.544" transform="translate(0 18) rotate(30)" fill="none" stroke="#dc3545" stroke-width="1"/>
        <line id="Line_167-2" data-name="Line 167" x2="5.06" y2="0.544" transform="translate(0 15) rotate(30)" fill="none" stroke="#dc3545" stroke-width="1"/>
        <line id="Line_168-2" data-name="Line 168" x2="5.06" y2="0.544" transform="translate(0 12) rotate(30)" fill="none" stroke="#dc3545" stroke-width="1"/>
        <line id="Line_169-2" data-name="Line 169" x2="5.06" y2="0.544" transform="translate(0 9) rotate(30)" fill="none" stroke="#dc3545" stroke-width="1"/>
        <line id="Line_170-2" data-name="Line 170" x2="5.06" y2="0.544" transform="translate(0 6) rotate(30)" fill="none" stroke="#dc3545" stroke-width="1"/>
        <line id="Line_171-2" data-name="Line 171" x2="5.06" y2="0.544" transform="translate(0 3) rotate(30)" fill="none" stroke="#dc3545" stroke-width="1"/>
        <line id="Line_172-2" data-name="Line 172" x2="5.06" y2="0.544" transform="translate(0 0) rotate(30)" fill="none" stroke="#dc3545" stroke-width="1"/>
      </g>
    </g>
  </g>
</svg>
